EA64A7D4-4CB7-457E-9AA9-001568510B37
179E2B37-E205-4CE0-ADE0-006755C9055F
4677DCB3-B9F0-424C-9357-007FFDAAC8AD
95C4CEAA-6F67-4FFF-86CE-00B421EC07D1
42414BA9-1519-48C3-80C1-00BB55A660F4
119F7ADE-44BD-4945-B6EE-00CA5FCA1BE5
CE2C0AD0-98EB-429E-949D-00DD76CC133D
2FD9E900-3140-4FEA-A234-00EB2B476E4E
B064B3FA-3CC8-4E48-B815-01018563F28C
39EB8F90-49A9-443A-8604-01480914E84A
D8DAA4B1-76C7-493B-9815-01687F6BF59D
C5E9704F-29F1-4E56-81BB-0194A5DBE366
B232EF19-75AF-405D-A410-01CAFA59A171
849F14D6-94C3-4C82-98C6-01D54067F992
0547A50F-020E-4965-8604-01D99FC9E111
5F8A9803-7C0F-4E9E-B615-01DFBDC1A1E6
53777D13-953D-4B65-99AA-0253E63845B6
BA77F05C-AD38-4515-B7D8-028505DA3303
45F6D967-7A1D-4C27-B9F6-02F2D98082CE
2D685286-DDCB-4EFA-BC8E-038016866380
D30508A7-8904-4648-96F3-03BB5211F60D
4BE9EF66-FE11-4AE4-A5C7-03D3C6EAA7C7
7BED93EB-87F6-4511-94BB-03E04794EDF1
437D7D67-B9F5-413F-86CF-03FB4B920C45
F9023125-75AE-4698-8864-042F5E23CBE3
E48AE406-21DB-4ACF-9F05-044703636868
8B5A3BA5-86C9-4C04-856F-04608850AC1C
EC6E0DF9-5AEA-4AFE-9857-0461FDDF8E36
7055E0B1-5052-4A3E-B879-0465D98848BC
8C2C6018-2176-41A0-A199-047313B4F482
E168A9FB-BB41-46BE-ACC0-0475478BA6CB
5C85987E-B1CF-46AD-BE0B-048133347E4F
B0873BAC-9A4A-40CB-8F6E-04AECF27FF5A
C30F23FB-C76F-4C8F-BE65-04B045DCEFD0
D7786E29-80FF-451C-BADE-04B6FDD2883B
3BD47FF5-D642-4FF8-8228-04CAD04B6530
C631C223-9F4F-4093-96CC-04CB0C1A4F7D
8114C95A-1239-44C6-891C-04E8C23F88BD
E818140D-532B-4E64-A38F-0509E50F2FF8
1609458B-A550-448A-B192-051986235925
A0C27B7B-70AC-4AA1-8EC7-051AA0931B0C
803D2771-7ABB-467C-A273-053AEF87660F
D97ECA50-0770-4B73-964C-053C334A5775
B4A71F80-B29E-4AE5-BE30-0544F184036A
3465B30B-C020-42F2-AD7F-054C74C72202
9FDE4415-1DA2-41D8-BBD4-055AC73E80CD
571F7AAB-91ED-4FB0-B295-0576066E75C0
02FF6706-E644-40ED-9554-05FB3549D9B5
3F9FBC5A-2CD7-4F21-9C77-0616C83FB4C3
56414F2F-2D8A-45F6-9DAF-0630128ECFA8
40A21942-2E66-481E-B670-064FBB9690FD
FAED4C55-D360-4B79-BC4B-065DD821EA0D
E1426888-6657-43D2-8C9D-069BD04F1313
E4EBBEA7-E713-4806-895A-06A2C8198CAF
B02B26B4-A8E2-491B-A53E-06DF536090B1
11CC2E67-63F9-4737-9E50-06E49B6D46CC
7021E776-0E78-40D2-BF5A-07142FFAA3D8
1F1AD822-3D9B-4A81-B323-073AB341910B
9A21E44A-8F5C-44D8-9ED6-07636EDCBC59
961169CB-FE75-4500-AF93-0766007F7889
61D54570-F1CB-4F84-91F6-07EC2710B678
0448C09A-01B3-4068-AAAB-07F8E23D905F
AC0BFF26-963B-4471-952E-0827BCA59091
DD98BCC3-70F0-468D-8CA9-0828B520BB90
05A75CA2-F599-4DD9-9277-083EFB431475
9FF31AB7-6119-4C7A-A4D1-0844810B9ABD
1C093FA7-A41D-40BE-AD7C-08689409F030
7F56DB12-B5E4-47E9-A1EC-08A859FF704D
4BCF38E2-7870-4FAB-A31D-090C62E33F4F
B0931558-4A80-4215-9BE9-09148831A07B
C06302EF-4BCC-438E-84D2-091B4862F5F7
5D7043F8-81DF-4451-B9F7-091EF8BB74C8
66FC6435-D213-4454-BAC7-0923D3B200A4
B738AE6C-9ABD-4554-A7B5-093100EA520F
82EF92C2-C32D-451C-B877-0940096EF959
776BF7F6-4BCB-47EA-93E2-0975FF58E514
D30423AA-2557-4354-9E8B-09CF24BC8604
E513CA92-FC1A-4317-9741-09DB7A85E2BD
DE3E6C44-C482-451E-97A3-09DF6A45B0EA
DE2A502B-4CB8-45EE-9284-09F18D96BD07
BB431AFB-59C2-4230-AD04-09FC2AB87E65
67C4BE26-D42F-4151-83A8-0A24F07091AB
B2E80FA0-23D1-4EA7-BFED-0A6DB28551BD
D7D4180B-3651-4CB2-A3CC-0A72D9B92AAD
CE0729B5-4EBB-488F-BF84-0A90B750ABE5
502EB95B-8D52-46AC-B420-0AA36279D41E
75E09447-064A-4A62-BF64-0AA5067BFA4F
FD2B3C69-A2CA-4BC4-819D-0AA54A36F84B
BAA00276-BC69-46A6-B9A4-0AAF8C47F7BD
D9E6AB04-6A55-483E-A4C6-0AB2907BC047
1AA19C39-3F5B-4291-B203-0AB55BA2132F
8FFB3CC5-BBCF-4573-A698-0AB79C7A68E3
C6A168FD-4CE5-475F-927B-0AD14324682E
34965E72-5A6A-4E8E-84C1-0AD5D741D9D8
EA1CED2B-B211-4FC0-B060-0B350531658B
3A39133F-67DB-40AD-B0A8-0B3FF4BF3C40
45C7F340-551E-4D8E-A74F-0B5535C3CA08
36C1ED7B-07A5-4639-BA40-0B8FA215C8EC
9F235170-DD4D-437E-A95D-0B94AD91CAED
F3774C72-3BCB-4F10-A52A-0BC50A6946DB
AE21788A-52CA-4B3B-97A4-0BFD593B9B99
5D180F40-5CE4-44EE-A869-0C20E6A7E00B
7DC53318-1D8C-437B-9CB0-0C4B00F9248C
F65F093E-3540-4BB8-B727-0C71A2810E53
257D9C4D-8F92-4E8E-A217-0CBE0AD47D73
FC2DC57C-5081-489B-A50D-0CC88C342450
9A24912F-FCB7-4785-BE69-0D1353C3CFEB
8495A31E-69E9-4715-93CD-0D1E9004C10F
46DAE805-B389-495F-84B5-0D24A710B762
AD6E420B-C12D-4AF9-A536-0D66042F9469
E78FA2B9-3279-43FF-80C5-0D771BBB9555
93343D10-5FA0-448A-86EE-0D7E3E234AEF
CE20F10D-095C-4242-A6F8-0D8641AB1599
6A6B8EB4-1450-40C3-8980-0D9A6A9204B2
6B98FB6E-7251-4CCE-837D-0D9CEB7C8088
FB7740DB-3055-4EC8-B5AA-0DCD267C7DCF
C25FF7AE-F75E-4958-BFC0-0DF9D176CD22
99C954B2-E216-41CF-8687-0DFC763DA9E0
1DB4A8A5-BD80-44FC-B6A6-0E0869233BB4
B8CFD11D-F2DA-4DF5-97CA-0E23502BC737
9D913E2B-3482-490B-AE0D-0E48726F437A
8C4AF1B9-D3E6-40D4-90FF-0E4A868A5509
EE07D9AC-7F83-4E32-B026-0E4BED70A4C2
509B3537-3820-47E8-AFF3-0E6BD22D72B7
7E238D62-63B2-4AF4-8F0F-0E9B1900FC76
28B493A7-C77B-4203-8F63-0E9C1D6A6FEF
31AAB604-8261-412B-A380-0ED092F8A8E3
3D6BF65B-7E57-4AC8-8318-0EDC5FEEF126
5DD695C3-3E6E-484A-B34F-0EF6E784F2C9
711D8EDE-6086-4D53-8028-0F1E0FDD63E0
2316EF43-2FF4-48E9-AD30-0F3AA3D621D2
C074A041-3201-4A90-B19D-0F467D948F05
935CD795-0C63-455F-B884-0F58D3DED530
9CD97C69-654C-46C4-8ABD-0F7C079E9A90
AF117C8B-4AD7-40DA-A7DA-0F942EE51575
59F63EE6-DAD3-47C6-9513-0FD012488CB4
0949B7EA-6036-4A0D-8370-0FDE50BA5502
977BE98F-9229-404A-A0A7-1013768364F3
51930ADA-0F69-47CE-8CE2-10183A267FDB
E7F2D9E7-C471-4226-A46E-10218C623B16
595BEBBF-47B0-4A04-8BC4-103BABAAB664
7362B4F2-CEBC-4D97-A967-105EDD3DFAB1
B853EB67-AC53-4D6B-97BD-1072B0F888FA
1A46870A-9B61-441B-8519-107D22CD2035
489AAB1C-11D4-45F4-B8B6-10B1E3BD1B4F
C54A6035-3D03-4725-87DB-10B7464CAF59
0CFFF2D6-7298-4FC0-9AA2-10F257C1F0B9
181F0A7B-A50A-441F-9C90-110CE0F1849A
A9DF1674-3BFB-4EA6-82A0-111AB2EF55A7
FAF489C5-E210-4A25-94D3-113C9C8D904B
102FFEBF-5E35-43FF-80B1-115C3B2E5E7C
CA480E7A-136E-424B-B1FA-11BEC65515C5
BB75ADD9-DD27-4431-B342-11C7E3CB57E3
208DA952-0651-4D9B-AFE8-11DA0BE75918
59AFE948-E96B-42BD-825C-11FD0859E25D
D1BFB71A-2830-43D6-AF1B-120B148E6726
689669AA-F6AB-4662-8DBC-12369A2A42B7
0D3F6175-F7F3-4685-80D8-1238033386BB
DB47344C-3E35-4FCF-9C83-1260BE1BD656
431DEB96-6A28-4898-985B-127AE7015B77
467E7BD7-4B28-4147-B4DC-128FB57ACC73
BFC33C00-E663-44B9-8330-129993E4977D
B271B083-8DB8-41A4-9E0B-12B5575611B1
B57D87C1-9C31-4431-9A1F-12CB676CB072
01C5E7A5-4D56-45AF-A5B6-12D703A6AED6
DF3049E8-7E9D-4944-9A61-12F1CEDEDE9D
2957DBB5-35FD-4E22-8EEC-130D45EB3278
34ABF6F3-7C29-4C5B-A0F1-1329368469E7
7A03B645-93B0-4516-B390-133F3EBB68AC
2A9E5BCF-BBA1-4EC2-9430-1340F444B4BA
EBBE02D8-9691-47F4-BAA2-1372BBD2CC0B
61136677-FC58-467E-9C52-137FF36F7CE6
12442670-4E12-46C6-9014-138E014F26B2
08EAA308-8F5B-466D-8014-13AAA5FE86A3
19FAC9B2-6584-44A3-8F11-14256ED78A31
5CBEDA3C-AA1F-458B-BA16-1434170A924F
2F449435-6F9B-4780-B720-14663218AA69
88E7CECB-0034-46C2-A2CD-1470609311E0
73CC4589-896F-4F19-A6AE-148412CE23E0
B048BF9F-C4E2-4F70-8C2D-14D2F44DB5EE
AD48217D-E422-4D98-AFCA-150271A9B705
2DB770E3-493C-4CA8-9287-151ED7E70D36
91122173-0348-4305-B001-155896A01EE0
C7C2A97F-A3FD-4042-9AB7-157BDC9FB41F
77DECD2B-3577-456A-AA7B-15B39E24B189
30239CD4-85ED-4786-8106-15CA31F0A147
E4890C21-F5F3-4FA3-AB05-15DA86EDE459
5E0FAD22-7622-4908-9E5E-15E32DC23657
5CAF03B4-6F09-4005-9BCF-16167A999621
A3BE0596-0B56-4ABC-B3BE-1620BBA1AD2C
AE33C29B-3CC7-4B1B-B62C-1652D3AA4C91
6719EDF4-8162-4F31-A431-1656A0F4C8B0
710E13F8-18C0-44A1-B444-16622785F694
7C06B6D6-BEDA-48C4-BD28-1683E5D409F0
854B5694-0246-4E1E-B6EF-168BC8183B32
B5FDBDE7-791E-4A35-855A-16987CF67ACF
A4F56271-1239-4997-8C1C-16E68E5BBB35
E8A03363-CD3A-44A8-8F7E-16F813713704
BB033D4E-61EB-4294-952F-170C83233316
1B71E841-29A2-42FC-A8D3-175F3C561F71
AD10AD31-F985-44B1-A768-17951458EAF0
E347EA89-936A-4EBE-A8A4-17D2A9082D81
C6DBE226-13F6-4A11-924F-17EB9BD04EA5
4A22BFD2-9A84-4489-89B6-18267F6BF532
96ED2477-0C4F-48D1-8332-1834BB6B6CE5
F939F7DF-80FC-4772-9FB6-184E26BCB21D
031FE8F2-4513-40C8-8958-18CA70F8E3A4
EA1C16FB-F3C6-4ACE-A38B-18CF511458B7
7C322A4A-1403-4264-9731-192334509F72
9DE8DA4E-3395-437B-A34B-19A7AE22C8F0
FA2AD262-B124-4879-8DF8-19E890A760BB
76F9AD28-B83C-4E4B-9A95-19F145276093
38E72292-3705-48CD-8126-1A5157AEA828
C57D3535-17F0-45BC-A8A0-1A989CB27212
AFCF65E8-EB87-4F8B-9768-1AA6618D86D7
4BF37B2C-F0A7-4F66-A9B2-1AB0D02EA5B7
AE8DAD4E-243F-40B1-B67E-1AC0B825493C
A44D5FE5-4510-447C-90CB-1AC32DF3E58A
B21C0503-1727-4782-9B14-1AF2AD87B78D
6597890D-3CC5-45FE-95A3-1B7D0800E556
D36B4B54-E508-4423-AACC-1BA560100E90
F73A23A4-0867-4C38-8479-1BABB05E4628
178B9B40-AE5C-4DEE-8817-1BAC544DE851
F4440E41-C418-4693-9A57-1BEC9237D7CA
6AD8C9B9-6CDB-4732-989F-1C7AF73634DB
545E4AA7-BB1C-4557-935F-1C7F8BD88DE4
C46D2630-E59E-440D-8BC0-1C87AF43596A
FDCC8144-17C3-4471-BF08-1CBC151AFB7C
006C9CAF-1F5E-439A-8FC6-1CBEB48502F9
617B5D01-2E5C-4651-9F77-1CC0BFEF8B10
3D493F58-B830-4F3C-A7B9-1D039E92D1DD
31B5B284-DD1B-4989-ADC1-1D33409AB6DD
062997C7-A11A-4A16-9983-1D7B26525E4E
E532ABB7-AB72-490F-85B9-1DCE382C4B6F
B2414A28-AAE3-45F8-B5BE-1DDBD1471233
48E4337F-4870-4168-895B-1DE3FBD51C7F
C7C0A619-CECD-4052-AB70-1DFACD18D3F3
47D24C28-6F6A-4118-B922-1E7A5BBF4A6C
80FE21FF-458F-4BBF-B3B4-1F11C59DC087
8F123B3D-F11A-4BFF-941C-1F397A78ACD9
24BA08B6-5055-4BD8-963E-1F8036FD0DC0
B7904942-179F-4008-B246-1F9C92E19839
5075A0B8-795B-4DAE-985C-1FACE71D27E8
21DBBF4B-5E6C-4D15-8CDA-1FC7316AA04B
955FF2FB-0845-4F9F-847B-1FEBD8B4AA1D
F6549456-39A2-4441-A0C7-202116FB0788
7B168922-16B0-47B7-B3EC-2031A1C2C94A
B918EE8D-B281-4A98-8407-207D976441B5
2752ED95-D689-4BF0-8D13-20EC2ABFF2FE
69A9FB15-AD8A-4912-9854-20F88620E247
74DF3107-2313-4C97-B4A1-2125B33FD22B
D350FFA7-AB07-4A05-9716-21397E472CB5
8970B965-E337-4892-AB37-21625D8C45AB
9543E2B3-3410-4536-A2E8-216CF22AD573
F0171015-7B39-4DE7-B068-21C40C7298FC
BB07F281-4AE1-410A-8E2B-21C75C8E10B3
0EB86325-B0E5-4239-8F3B-21C89D4B8DF4
C22AA1E1-0BB7-4C8A-8811-21EA404D2369
1F9CAB66-A6B6-4E8A-8D28-21EDF310F227
F1144C5B-101A-432E-8B9B-21EE8377888D
60A63AA2-E106-4B74-9551-221A41490A42
22C78824-E0C4-4D5D-B96A-221F389871E7
232EDB89-98B9-4A8C-B2F5-2239065F4EF3
54040510-DE01-4010-888C-2247FA37CD9E
9604B6EF-937B-4762-BF8C-2250E89DEA17
77213EB9-5484-4F45-8DFA-226EDE516A63
86235D43-6BB5-4E86-B55E-2270B08177C4
64962FA9-4C77-48B3-98F4-229B4424595C
78001ACB-AC8F-4C53-8B08-22A712610288
6C225CDB-BE36-4EA2-8C3B-22AB19542787
252E0A04-BCBE-44D7-8DE5-22B5FF62202C
9B947CB7-86DE-4F22-AD0A-22C0730874FA
5210D082-4590-41F1-B5AB-22D527E65D88
7787CAA1-1347-4754-9C03-22E58D26B2CA
52540752-7322-44A6-9A5A-22F1B1D9D1B3
C627AB20-D926-4E4C-8044-22F3F926967B
2B471879-B1C3-418A-9718-23103098CFE5
33C6B018-F059-4FE6-ABCF-231546457F66
6DB2AA4E-27A9-471B-B979-231ED2F6AF97
86AB835F-F505-4C6A-A75A-232013BE1D78
9E4F42BC-8D1F-46F7-BBD9-2320CA159BB2
A3245095-10E3-40E5-9CE1-233B03BDEEEF
CAACC384-B2CB-4F00-9E04-23829A60EA38
163B6056-918C-4A48-A237-238E47C4911A
04B0ED8D-CD98-4576-990A-2391D0E5C48B
1A07B857-9D44-4926-8AA5-2393786BB095
F1E34AC0-FB7E-440F-ADA5-23AC5102801B
6A1F0A5D-4A78-4FB5-A525-23C4B89E4F6F
8F307179-C51E-4994-A245-23CCD4D6ADE1
F7B7B3A5-CEB8-46CC-87CE-23D479F5AD42
328D8623-2D7C-4F70-8AA5-23EB29AE1F71
A86CC812-59EB-4F45-9ED9-23F3572503DD
DF55A369-3063-4EB7-8801-23FA370B8272
B807B7C0-D8A7-4ECE-B97D-243261CC9D01
283AC8E2-6C54-4F13-9FAA-24521318825F
B562C34F-EEDD-4810-9BC5-245E199564A5
A75900F0-F6B2-425E-852F-2470C02186C5
EAA01EE0-1806-496C-AE20-2480D8EBE7B1
D048DEE3-69BF-463A-8087-2494989E3F21
92ABB4FF-D02B-4055-A191-24AC771E1AE3
E8BF12A5-698C-4F0E-98F2-24DA8C91A9BC
39500543-A227-4587-9985-24DBDB8A14D1
5716803E-B867-4DFA-8A93-24E33676F329
CAA2D610-0AF8-4319-A2B3-24EE46F9F618
63949F3F-1C30-44F8-8ABE-25464EC4D707
C709AC3D-4F6B-4EEA-86B7-2564B47B39E2
C5505DC0-608B-46A8-A1C3-25827CE21FB9
9FD1CBFB-6757-49CE-AC00-25ADA611CBC4
69A641E4-7787-44E9-95B2-25BB6AD50BF4
3878016B-73C1-4365-9BDC-25E7748261B9
A2126509-23A1-42E3-997E-25F1C0D5F7AD
EBB8AB22-B1ED-4B00-93CF-2601436925FB
5646E77D-4C2B-414E-ABAB-265F39337119
D34A4D32-B483-409D-AFB8-2665FD6E4BFB
52B54EC6-B1E5-4D71-B6C1-2671EF265175
07D20FE7-0726-48C7-AC34-26764B95E19C
340B2AB7-3A37-4877-938E-26AD88342961
ED525B08-C443-4F15-9196-26BB229755B7
589EDC8F-8161-4BFA-B7D6-26DEE8FF064B
5516235B-4388-432C-97CB-26F8358E9383
226D6D3C-13BB-4576-AF81-27108B20160E
B9F4F63C-2542-4F63-94EC-27AE287F61B1
3E0B2BBB-A1F5-434B-90C6-27B79B54FA21
EC1FF466-9B3C-4D35-B9C0-27C1B5E8D7E0
F6213089-9E10-453D-B2DB-27DF96A0B3BB
4FAAB229-D942-421F-B251-280D3855F0A9
CE55D3A5-2B02-404A-8C6D-2819AF81E7B5
B85F4032-8CF8-4118-BF6F-282750F34A0D
3AF2D8CF-BAD4-487D-96BA-28298A44A93F
FB8AE001-1406-45E4-8225-283606843628
7FDBB467-105F-4D54-A274-283FF07980A4
DF1F221F-584A-4194-95FD-2867F3BB0873
5AA42CA1-1059-4DE3-AD22-28813A0FB6DE
FD2558F8-DE68-41CE-9595-288BC069AA07
8A034FBA-134A-46A8-90DC-28996161F039
95F4D657-111E-4D1D-9F6A-28A9EDD32652
A8D47AC0-A749-40A7-9F99-28AF70D739CA
30B497E8-1E89-4EAD-AFD8-28B554B2F36B
A3EE68B5-181C-4A9D-B8D5-28EE9A68B524
EDBEA0D4-D5A7-4C10-8CB6-29684519D677
1FCBE9C4-0C83-4E0C-9137-2973676BD87D
9E2829AB-1F60-40EC-8C2D-29860DF1B57D
A444FCE2-0A29-4531-8B03-29930D758031
88F5EA57-7ACB-4663-965A-29B0F5076C97
0B6B1585-A97A-4A69-89BA-29B45AAD8FB6
1C308238-71C2-4271-8403-29D491522A4D
5C38F88A-B2C2-409C-B727-29E48A598CA0
B8B4B08F-B953-4325-B7F1-29EA363F8E4A
7016886D-89B4-42D3-851C-29F2CCD7148B
EADF0D94-3AE9-496E-8D9B-29FD289D2D33
D6C9A353-C4FA-48A5-B7EB-2A073DF6492C
EDB56BAA-D4AC-4E3D-A978-2A20C55395C5
2D9D82B5-9C16-4AD8-BC06-2A5D0BAD3555
6990E899-ED4B-46CA-9D76-2A5E06C74D1B
DB85B495-5465-4164-902C-2A71FEB51500
CF8D797F-BE2A-4CE2-B7C4-2AACB11C1B54
BB744244-5CCD-4817-9CE9-2AB269E0D96A
DFACBD52-C1B0-465B-A899-2AC6B2B28BE5
AD7FE221-3F18-4E4D-9F6B-2AD2F3DA6EC0
13C5908D-4CAF-4F06-BA95-2ADBEA84C0DF
442FE378-D201-4D2D-8A05-2B223D817B40
708A3E12-9E09-44BE-A8C7-2B5F1E26328D
14A32F84-10CA-4B98-BA97-2B8E259C113C
93C3335E-5966-4A35-B00D-2B921376128C
A062DAA0-B536-4393-A71D-2BE38C78CCFE
9DAA62B8-4695-4B8E-A3C5-2BED243B8A54
B3C1B1D4-862C-49E7-9730-2C04488601AA
FD8E7BFD-2316-41BC-8285-2C07B39EBFA6
62412671-B28C-46EC-A1A4-2C116FAA7533
BC79CEAC-B8B2-4EDB-AB49-2C19E41CC116
7F6BEB7B-EC09-426B-AB23-2C4F3BD2DEE9
3A807E06-7584-4C7D-A6CA-2C7793497E53
D70DBF2A-4540-44B3-8928-2CC9ED87F955
B6F42EE5-DC36-4709-9F66-2CE241548733
6DE66ED9-D414-4DA9-8EEB-2CED2E8F3F83
76530530-A43D-4A8D-9110-2D134F5726B6
6F582B17-C74F-48F8-82A0-2D3522D484BF
EE2ED797-AA60-4D2B-B385-2D60A6D2F249
20316629-A341-48C3-B94B-2D751021739B
07D0D34A-6D7A-467D-ACF6-2D9D66BA5D55
7A38FC68-190C-4089-AD37-2DA805C6F88C
2E0470C2-F87E-4EC9-A4BB-2E13CAF736AC
D4AA9C45-4F20-4683-BCDA-2E40E4C63001
F0205F25-93CF-41C8-AAA5-2EAD83AC79B3
90902563-8859-435E-A371-2EDEB905FDE4
261E7C2B-EFE8-4068-B589-2EE684C455B3
7743A835-AB2F-490F-9382-2EE9AE1EBA7C
25A869D4-5E35-4B4B-88CA-2F0261204A45
0247DA49-CA1C-4031-8321-2F37B17A969D
581086C7-1150-4842-BF97-2F55E8DC0FA8
EBC7BA0C-E6EA-4697-B776-2F97455F5AF2
A905B89C-F59C-4B34-B246-2FB5C49BC63F
B9505C8C-F526-4ADB-B3C4-2FE4DAE04730
3E77F52A-0330-43C1-AEFC-2FE56D8F3718
26BED73C-52D9-401A-80A9-3005AA27298A
EB963D3E-ED55-486F-A819-3009F8901B01
595D75DC-92A9-4196-BF31-300E485FD78F
7A8F711F-B328-43F7-A06D-306F07C84A8D
F1F64A5E-368E-4EC9-AD04-3072D24690F0
B33C7320-2C3E-44AB-A138-30AB8A1E3946
A163D2ED-B549-4055-95B6-30AC8618EC57
FB593656-F2BA-4C4F-936C-30AFB154C2E2
157F4A12-331B-44A6-BDB4-30EE1CA4A4DF
9A442049-42E3-42FD-BCAC-30F82E842457
73416601-5670-4C95-93F5-311C60465406
ADD8F300-6F95-4082-8DF4-3122C294B6DF
8A5CD27F-7FAC-4AEB-8949-3184753F436E
6052489D-0FA0-41EF-915F-318BA804CFC4
BCF19CDA-12F1-4E32-BCA9-31B4AFF0A6C1
4CF17697-BD11-4284-953B-31ED4548DD8A
7A3D3D60-9CA9-4207-9374-3284D81397EE
F66F520E-6259-4B4B-BE44-329B0FAB1FDA
A1E28034-934E-475C-97F9-32AD5D78CF2C
64AD6ED5-DBAC-449A-BCD4-32DB90BBA244
1906752C-B2DE-4C76-BE53-32E56DACCAC8
9CD209D2-FB85-446E-AB13-3306E3489636
430C3FAB-CB31-4BF1-9753-3316B6A43875
D0D60397-63B2-4B32-970B-3334A6214424
63983486-8344-483C-AD38-33B9BF64529F
D944EB5F-0F31-4A82-A740-33BB74454FB1
39E7F03E-143D-4950-BE5E-33E841F8650D
DE411B3B-4217-4897-8B28-33FBE2B3E8B6
F6C77982-EABD-47D0-9C8E-34112F8B57F4
05C02E13-4AAF-4CD0-9CCE-341CF2D86D43
EC4DB970-27DD-44FD-AFF9-3457B662E2F2
FC0A1A3D-6704-4003-9DA5-34610323433F
35567250-5BD2-432B-BFD0-347F772BB5AE
3D472498-9D81-44E1-BA98-34A7872A8EC7
35BC28D6-4EF3-49B5-8871-34B34D7A60AC
AE395E7C-703E-4418-BCC1-34BE5673EE07
66CC45BA-243C-4CE6-A6B1-34BEFF0AB262
67FA3746-822B-4FB0-A511-34EDA53C97F4
DE81DF4F-DEA9-47D3-8A65-3505A664CE96
966EC4F3-535E-4D39-BAB3-35327F60816A
21F30180-7E9C-4D9C-AEE6-3545076E323B
5E2D6254-1DC6-40AC-9EBA-357E90C35F92
1AF5FAAF-13A7-4B4F-BB3E-35966298B9A2
CC50611F-AC9C-459D-BCDB-35BB2F7D118B
749F38D6-FDF3-4C37-B848-35E5347691B4
B4F7DA5F-5B3E-46C1-A559-35EE5ADE732F
0C8288BA-2E02-4077-8C4D-36017AE8EB9E
3A922D90-5439-4ADC-A4A4-366AB82EC871
ECDA2DCB-7B93-4C5F-892D-36AB9B38D913
40021FA9-90FB-4CA9-9A98-36C7C10F7B5B
DC0E5503-863E-4179-B82E-36D4317547F2
97747E44-64A4-46E5-BD9E-371CE9D1CC41
8F50E52A-B578-4B54-AD30-371F8B89A6A9
A19C5254-367B-4C75-9BD4-3766A254FB39
0836736D-2EF6-4A96-B7FC-3772737661DF
737AB08F-EF1A-4EE5-B021-3786B280AEF0
FE7D47FF-D796-44C0-B331-37A23679F743
688A164B-8656-4172-96FC-37BE25D5E5A5
6EE55208-7671-44A2-B1FC-37F3AC49806A
5D37BCE1-4281-4258-B6D6-37FFBCB3963B
656F4421-69A0-4643-BE19-38032D837230
7E5BCE48-2D6C-40BC-BB39-3809CF1783F8
02EBE555-B8B1-45C1-B0E6-380DBD5AFBFF
C577A57D-3E9C-4E69-A8C7-38233BDB84ED
96D911F9-63E7-4A2E-8896-382708AE4B74
74E3FFEF-D70C-4FE2-AAA4-38909239205D
8A1E6CDA-7E84-4D95-BCB3-38C94593FAA8
365C89E1-E2B5-40DC-82A2-393C8A692CA4
7596C41B-0F5A-409D-AFEE-394353138183
20A2592B-49F8-4CB6-8D15-396B0ECD3333
ADFFFED0-5537-4589-B5E4-397ADB622F85
3293C2B5-D3A0-4A7E-B9EC-39AFE1AE1241
0C600FA7-4D88-437E-87C0-39C7EE0F43C4
97B1C86A-D272-4D49-A796-39E4DF0F3AFB
5D2E0E50-3F2B-4345-B70E-3A38DB1AB151
5CF34609-7B89-403A-9426-3A4A8BE7CB83
05DCA771-7247-460A-9CC2-3A731B9B7390
236F6932-BB43-49EF-B08E-3A98EF1839A0
E506EF16-98A1-450B-BC9C-3AA2C661DCCD
A56AE05A-AAD6-4C06-88D8-3ACE0DB1854C
AA8AD769-84AC-4064-BAE3-3ADF6A09F77D
0E2D1226-B2B9-4F2C-B02B-3AF3C65B8C00
F613B818-E968-4DF9-B03F-3AF73920CF2B
25CB7002-8BA2-48D0-9A7C-3B10B76F8A7A
20154353-DDBF-4319-815C-3B5642FE977E
92DAF0B0-09B4-4C86-BCE2-3BA4FBBC7378
627E8F16-0604-4CED-AF40-3BE20268D913
D6CBC8FB-F27C-4536-A739-3BE2F17ECD24
4F5EEA06-B0B8-4ED7-8FED-3BEF5CBA6C77
9649DE75-DE8A-4F51-8842-3C44A94782F5
C10BA942-9E68-4120-A47F-3C71EF7EE3D9
AD074786-E9C9-4B81-A709-3C7A91CCF0C1
93B3476D-CA0A-447B-B8CB-3C8BA175711D
843F1DD7-C60D-4731-9867-3CDD53C978E3
3CBB5EA4-5F1D-4B3F-B713-3CDDD9DD7B8C
E5D07C5E-151B-4485-AC99-3CF03E5CDF7C
CE30868C-4D28-4CB9-BE92-3CFD3C907717
E2A01F96-55C7-421B-AFD8-3D3E3AF817CA
CE2EEDFD-CD10-499C-92A3-3D67852FF000
A7EB1DDE-459F-430B-B015-3D728A3F114A
608B314B-50D8-41A9-BEFD-3D8054CFFE49
D7AD6F9B-995D-47AB-AD51-3D917CD9ACD7
BB6D52A5-C9BD-4C57-802C-3D986AC0B422
A01F1754-F5E8-4D7F-A9CF-3D9D8B3D56AC
C2D1360C-B512-4F8F-B5F0-3DA993838793
DE1DDA7D-71D4-4C5A-9D1A-3DB75F40F649
3AB20308-48A9-4DF1-85E0-3DBA504FD070
126F8D7F-8C65-473C-AEB6-3DD6B089B036
0474D622-175B-493D-9CDC-3E03B25C958E
C240412A-5280-4337-8B31-3E1AA5E4F880
813C9D41-2CB3-407F-9DC0-3E4404C1B174
30099FEA-53AC-44EA-AB15-3E5B85E2341D
BBFBE8D2-2D47-4B01-8119-3E6AA356AC59
DFE5E9FA-EA7B-4239-81A0-3E8063999C09
C1633D44-0340-4AD4-AC3D-3EB346656CAE
F4465E3D-C4A5-4BA7-A1A4-3ECDC3246BEE
088DA66F-FED6-44FD-B61C-3ED4AB822B58
C828CDAF-4F26-4D09-B2FB-3F505930FF8B
3D8EBDF4-FBD0-4ADF-8332-3F70959F0D37
A3891BA7-CEC6-4E5F-9AA7-3F8210F182DB
5889549F-85AD-45E8-B5EE-3F8B2906CB6C
C092676C-D8C2-4833-865A-3FBD6EAB3AAF
4AC26FC7-4983-4001-A5CF-40303ADDE3D9
4BF1BD00-7E4F-4F6A-8687-404353F878FA
AB5FD646-B705-4742-8BC3-406664DB6151
1CD7BDAD-0BC0-4FC6-B1EF-4089ABFC0BCB
07F8A739-7C50-4C03-9E12-409A159D229E
BF6F2402-5747-4BAE-BBBA-40B173171EC4
38F8A67D-56D6-4049-B59F-40C3F3A634C9
28E35EF7-24EC-4DFA-8475-40C628B0A236
407F9B9B-16D6-423D-A423-40DC0EF11BE2
B6E93606-D49B-408B-BAF1-410602427B20
76E5683D-A9F5-4798-92EF-410DF7002E26
F0A82BE1-6F05-4F53-A03D-4132A7FA95F5
4BF61DDB-2A2F-4CE8-8C10-4150F067C06D
90F02A5F-81EF-4ED1-8B19-4156CE63E394
8409F1B5-5BA2-4772-936D-417F0D2158DE
2A0D384E-BAB5-4A0A-81C8-4183C96BAABB
FFC52F4A-DD51-46CD-B16C-41C399AE59C2
091608E6-2674-4EFA-8CD5-41FC989A458C
AC01BA5F-E82A-4C18-B4C9-423CE1822235
12C7D2D6-EFBE-4728-AD86-4262F9AEF27A
92CA12BF-0B62-48F2-A540-426AB61D843B
F1DE0F61-B7E1-4387-8BF3-426EC6694778
DA31F496-BE34-4FEF-8D8F-427184396FED
D9E5405F-E1C6-4C10-9C70-42945863AA85
97074F7B-DA5F-4FD6-87B9-42A1CD54F0A7
DB727B66-971D-4C14-A725-42A52A70FA17
F7740A20-17A9-485E-87BE-43121BE60098
1C67D6BC-0233-47CD-A384-43265E1C2891
915519AA-1FE5-46F9-B3B4-432C177FF719
1587A87A-D501-4CD8-B271-4365313EB351
097B763D-FCFE-4D26-98F2-437432F232F3
3FC81225-7C19-478F-A631-4379328E59A7
87188533-2B3D-4A23-9FB7-43940C35EA36
F3B0AF6F-C80F-4AD9-B370-43A0D59DC770
2F3DF736-1B89-433A-B769-43D9F04A535B
23C1E2CD-A1FE-467A-BCF7-4426B53A4D60
9D56C199-4F89-4D61-8A26-4453D8FEEA2C
84376DDD-A342-454E-A52F-447D58C47763
368640B1-1E89-49C1-9785-44946A618586
C14FEFBD-C22B-4656-9609-44AB6748EC2D
D8156662-11A1-42AA-B25D-44AFBA1A86BF
C9A68495-6569-43D7-955B-44DA887FFEB2
BFBBE97D-AF9D-4E5E-801D-450362048FAD
F2AE7FD0-079E-485A-92B1-452DE13CFC8A
600E15B5-537C-44A1-88E4-4532F4A6F976
C577FB35-1D47-431D-AF90-453897D6C8D2
5717AF5F-C5DF-40A3-AD5C-4547567C9BFD
69968139-36F9-4518-9AE4-4563075081B4
377448DF-01B7-4B92-B8A7-45883A5A562E
3559B6B5-B373-47AA-BCE3-45A162287DC2
8A2E9CBC-E795-4BCC-8B46-460FE708E1A8
E3C1C1DF-9FB1-4B23-BB73-461FCA220922
0F2F89E7-DC75-4EB9-BC35-4641E74B53F7
B719BBC0-A72F-4625-B1DF-4677E5316261
B3952ABC-3507-4A1B-BF03-46C069C38DC1
7722F230-5F47-4FC8-8E8C-46F25038B3EC
1891CDE5-ECCC-40E7-BFC2-4704E6727BE5
BB611CC7-E95A-45C7-8C16-4766734C149B
9DC77F28-995C-45EA-BC2B-4793E37CA78A
BEC554F6-20CE-40FF-80AC-4798BD3774A4
3A33F23F-711A-4BD8-9766-482A83569C92
89F901D5-450A-4E1C-B396-483C6A0B1B25
0EBB96A5-7322-469C-9960-487DE117B088
D4ED125F-B81B-4523-88D7-489A64687193
D0AE29ED-CEEB-4AB2-B4C2-48E32B119B18
64B4B988-279B-47A3-9584-492DC28E6D5E
946F81FF-F17A-4E8F-9925-49A43C464335
4B87428C-12CF-44D7-8927-49B28D7D1BA5
0803E3B1-F1E0-40B5-BF5D-49B476DFFC85
2A23BEFB-9A6F-4F27-BE01-49B5C3B6E436
7804E5E4-5809-410F-A58C-4A0723912EAC
385AC4A4-D75B-4681-810D-4A2ABC08C717
D23F9C20-580C-44A1-8CA5-4A3468796A65
7F16012A-83BB-4DED-9922-4A682A67C6FA
C261E0B8-4B4B-41E2-989F-4A6A5CC16F74
DA6634C2-FC60-4721-8A58-4A9505D145ED
8D39DB1A-EA92-4412-89DF-4AB07AD48B70
53370919-6D21-4E13-8AFC-4ACAB955772E
A4A36450-172B-493B-826F-4AD87EB07A75
7A078633-AD8F-4339-8037-4AE3A0EBAE32
55BD8874-7975-4437-AF6E-4B164D22F089
4C0F7981-92D4-4EFD-B897-4B4DC64372D9
7EB132A8-6132-423E-A225-4B507B517226
2B916BD6-6E0B-4434-AF8F-4B741D75E517
2663E04E-C2D8-4178-B79E-4BB264842CB9
67500ACD-458A-4361-AEF4-4BE2EBFCE4E2
040EA7D4-DFD5-445A-8CA1-4BE9F732D242
EF08ACE2-2755-4AD3-B818-4BFE1487F9EA
D09DCE8B-D476-4FE4-8231-4C40290F73E3
FA22ADB9-719B-447E-99F2-4C40D0C477D0
FD46F37E-D493-40E8-BD70-4C6FAEBDC325
ED2FE3B4-24D8-4F57-94B2-4C7CF33947A4
766CBC9A-9D26-417B-B254-4CA13A2D32D4
74E20E41-2301-4B48-8DE5-4CF85A49BE66
C9F3D298-B487-403D-9BD2-4D306B1D4EC5
6308126B-110D-4AF1-A4A4-4D38ECD87E4B
097CD3AC-A064-4038-8932-4D400108585C
00988BE4-707C-415A-98D1-4D4F7A56FEEE
22D1A80F-40B7-46D5-8FDF-4D8AC93CCE40
16C69F5E-A2A3-4D18-8A3E-4D8DA468CF67
00404A33-575F-4941-B181-4DA076D6574C
66CEC7CA-B4DF-4727-BAF6-4DEFB8B495DB
3439A841-9764-4ACC-87D8-4E248086A638
D6D03AE9-A04A-4537-A61E-4E4C16B302E9
E8CD562E-E4D6-40BA-B010-4E5D72555080
4A1435D8-6246-445D-B164-4E719ED4B3CC
79085580-6CF9-4E52-91D4-4EA68AD694AF
D6993C45-1781-452D-9A93-4EB30A4E6D84
8E58B96C-C72F-487D-AEB3-4EE9DBD98184
F37801AE-08F4-46DC-9A50-4EED59311D27
A751A141-578F-4443-BACD-4EF6CA901AB2
ADE918B8-5EB1-419B-B322-4F09D8A5E1B5
C8FBBAA4-34A9-40E6-B48D-4FFBEC70E7EB
EC01753B-C79C-41D5-BC37-500CF6233A80
F0B3BEF5-90B0-49D3-B18C-501642C2CA34
62A96FE7-7412-4475-B88E-506FBB5D2F07
9D0CA77D-9E33-4F4A-BD01-5079A12B2689
65248047-46FF-4788-BDCB-508BE1AC2AD7
E85446B4-BA26-41F7-BAD6-50B97E34197F
9E8D7EC4-C57D-4ACB-896E-50BD57523C18
1294B8B1-6B73-43E8-992B-50CAB35AFE1F
4059D06B-A0B6-4773-BB13-50CFD3197CED
BFA2C67A-99D9-4A70-94E5-50DF0230978F
14837CBA-2343-4E07-A06A-511393E37D83
FEF1E027-405A-4B76-867E-512CBE174DD3
C032EE7E-9605-4385-A133-514EB83B0B41
DE6D8F4E-20C3-408E-B535-51B56B107104
4AC9FA98-C880-4579-9188-51B6C0703CBE
FCE9B542-7BD7-405C-BDE3-51EBEF6C2644
C539C14B-6037-4685-AC9D-523C718DF04F
8BA9B885-DF00-4008-BF9F-5291E93D7187
EE7066CB-A076-451F-857E-529B77AEFD30
6B19897F-BF97-4085-BD07-52E35D716103
07CD232F-E21F-4E64-9DEB-530EE39DCE44
36FCBDB2-FE53-456A-B5F0-5394AE76A073
26A7D7F6-1CD5-4B81-917D-53BC7BA2796C
57D702C1-8716-4148-8B6A-53D6C6A582A7
DA6B6A23-C63F-4862-A831-53EFF19CC3F2
083091E8-E891-4856-9789-5430A76D9F4F
E14923EB-F830-4AF3-AD1A-5448310A2986
78B27CC2-471E-45E0-9F33-544A88564B22
BA4DEBA2-7677-4447-BA6B-54594396C7B4
0628ED4B-E4D9-4E97-B19D-548D18364E7C
68BF2EA7-666E-4A68-B216-54939811553D
272E7E1B-FD91-48BF-900A-54A9D98F1D54
E44303DC-0821-41D5-8472-54D058F8C2E3
614C02C2-092C-406E-8E77-54D5C368B4C1
BA9FBDAB-4E86-4489-A4BE-54FE91BF1009
28529451-E4F8-496C-B818-55117E6097C1
AE26747F-4A1E-4272-97F2-5512329F9A59
FAD5980D-A134-4D54-A004-551421E4DD1B
210BAE2C-3554-4D00-90AC-55346F5DE22D
1D9C213A-EA9E-4E70-A3B1-55349F641FAE
28573C95-D84A-405D-9937-560CA7301F58
FBE817F3-BE02-4228-9090-561C0BD18D18
598C2638-7668-41D5-9C1F-564A6808A377
F78EFFBC-E09B-4AFA-B794-564BA5342F01
82C90C32-4FB6-4BCC-892A-564F2FBC235B
124526CD-2A6B-47C0-A7DF-5652DCDB79BB
9C2677FC-44B9-4CB7-A59E-56F553A58546
81C9485B-7BF0-4D1C-AEBB-56F6ACF54C0D
8BA3751D-B74B-4696-9A6E-571C1277F9B7
60559F83-65A9-4D24-90C6-5729929B9D32
A3421372-AFEC-4D8C-B53E-573BF2F593C5
9461A6DA-4E7B-4851-A6A7-576D33A4F070
85150A89-B526-4078-8406-576F9A301A5E
4B4022C6-51C5-4E9A-8CCC-5778F98E3065
8C0D85B7-16F4-4A76-AAA3-57BE5C419097
520E008F-877F-43C3-BA60-57C55D80FF70
35BFE401-56AC-433F-9D38-57DE075C0120
7155DF9B-3B11-4015-AA21-57EE6E79BCF1
98113ED3-6E4B-4B0D-842F-580A369CB66A
70592C2F-8C26-479E-9726-5819CBB729E4
690071C8-65A5-4731-A74E-58531B7C089C
35A6CF33-C5FF-4668-9EBA-585AD5E4A1C1
E0331F0E-F366-4299-B645-58872F6ED1E9
648342D8-16F4-417B-ACC1-589976335558
8F3B20C7-5217-437B-9FCE-589F4BE84EFC
2E8BCD5D-C7F0-442D-B8D2-58C85F0BD207
EDCFB7CF-B6A8-405D-91B2-58DA5929CFFA
6EE1D14F-3A66-4A7B-A45A-5916E1601B82
DBE54F21-9B08-4C8F-BDDF-593A927B9C87
4B19CC77-5A05-456E-A262-5967F9692AC8
007CF0FA-7AC4-44B4-B24D-596A36D80730
7E9E15E0-8385-4EC9-A35D-596B9D995EB4
875EFEE4-1CCE-4688-A774-59733692315E
C48A12DB-89BF-4A4B-AAE8-59C361DA8861
892B4FF4-4B53-40B3-B2EB-59DA27B0CB3E
737F1F5F-9830-4896-9852-59FBD959469E
5F7DFAF5-E2DF-46E0-B2EB-5A297D78507B
E1FEF4D1-229A-4581-AD31-5A397836C34E
1BB0A78E-D55C-4776-861D-5A57D5589709
3B782280-2451-40BF-A038-5A5889FBA2D6
A814A60B-12F6-45A7-88FF-5A59ECA9DD58
1BB02E8C-240C-4E1C-8285-5AB3FC907790
5859E132-2A85-477C-9A30-5AC12FA3B3EB
92FAC7FC-D4DD-4FA5-8C30-5AC5BC27827D
B823F03A-C1DA-416C-9A23-5ADE9905B321
6F9744E5-BFFC-4674-8DC1-5B386F9A6D65
3C4FE33F-85DE-4DAD-AEA6-5B3FFF0B5D28
EE609141-E14B-4028-929E-5B45D6600470
7EE2CF12-87AE-4164-A327-5B50947E5D80
C731D9B0-742D-43C2-95FB-5BAA49235522
3562198A-A297-40DA-8CD8-5BDC299E658E
B8BF40B0-E0B8-4A1F-9153-5BE714585B8A
88E8665F-025F-4477-85D2-5C128BED3E6F
4C6A3369-F4E3-487A-B19E-5C1E7EC9F12B
B7535508-70F6-4238-A43B-5C44EC38271E
0AEEF41E-37F5-4416-BB44-5C56E661EFD0
A9E5641C-F6A8-4A2B-8C9C-5C6234789127
3F2F389B-85A2-41D4-AA96-5C9CD039B009
9D8AFF34-B589-43AB-90BF-5CA1DECEC772
B97B265B-51BA-4C5A-A3C2-5CF64846EDA3
C88AE232-954B-497E-99CD-5D0DD2AAAD1C
8F2DFAB8-7907-4BE4-808C-5D4AB1F819E8
40634A7B-0ED4-43FC-9239-5D4BEAC85CA5
FC251355-BDA6-4DDB-A3BD-5D4CEFF3BFED
E227924A-3450-483C-AD18-5D5C4AD18F29
1993AEED-C046-4DC4-8966-5D730A03B527
B7B6C27E-56BF-428B-83BC-5D872A0F989A
FA83B4B6-48B1-429C-9E16-5D879C9592A4
8FD63070-6E75-48CD-A775-5E03C5B99060
B8C9ADE2-8441-4992-9A23-5E0DF2DCF02E
3190A6D5-A915-49A8-B75C-5E28CCB005E8
7057470A-D723-4C72-8775-5E2CFD601568
CB58BFEC-C2FC-48F6-8DFE-5ED473F2E8CB
066DB63C-966B-4AE9-BD62-5EF430FF7236
C2CECE83-1687-4000-9225-5F058916E2C3
34E1E56E-47B1-4000-8DD0-5F1F5692223C
BC9C4C5A-E6DD-493F-8AF6-5F838108BC01
049A9194-6C6A-4486-9346-5F907AAC48A8
BF703673-6AA6-4DFD-8109-6020A6F1FA0C
3BAB0E1A-26DE-4E89-A14A-6023A53DCBDC
E7851BC1-8201-45DD-A6BE-602BEBCA523A
DABF58C5-15DE-42D2-BBF8-6035D8D39F3C
5E1736F3-42FC-411A-AB3B-603EA0B637E6
F49318C8-5B9D-465D-A807-604BAFD5D589
BB3FD858-C6D7-4245-83E5-60599E4206F2
2FA55322-4041-48DA-9F57-606C9ED4AA07
8778ACD7-F73C-4EAF-AC6E-608727D535DF
67B974E1-6C3A-4D86-BF48-6087FECCBC56
971ADD72-3036-4EBF-85B2-608CF0AFC299
859A9F59-5180-480F-B742-60A13F8CD7A4
34B539D8-8833-4125-88CB-60A32EA96441
8349C2D7-D9E2-4566-B25E-60A3C8C22789
2CBBFD76-A560-4822-8A48-60AEEE53E78D
9804A5A2-456D-4AF5-AA4C-60FF2B3CFFFC
6CBC34CC-4965-4EFD-A2A9-6153B4B7431F
18F5E42E-528C-4620-B35E-6158C6B630F1
ED3F1712-D4A2-430E-9F31-617433F61408
EF54C42B-E624-4448-8A4A-61799F6E63DF
6589A99C-40CB-410C-8D27-61B9F23A0243
0473D537-14FB-4B64-BDD4-61E315E62897
79376B85-ABF2-4CA0-80FE-61E32594DF6A
2B292FAF-6B3F-44B3-9F59-621ED51DAE24
74C95B3B-C88E-4D9B-8E0A-625DD2B81612
A23B10C7-9BBA-48D8-A582-62844C420B91
C3C411AB-6503-4667-AE04-62A3D588CD2E
D2C025DD-3B13-490B-9690-62E0CCCB5F09
3819A8E1-4251-4C7D-A835-6340463BBE7F
ED36BF3E-A35E-4651-A618-634E05185F79
7D26607A-5604-48C0-92F6-6376004FB193
7972CA2E-480B-48F1-A58D-63833AB1FDBB
2A8AA8ED-0DBB-4E45-944E-639C542E1BF8
79F054EF-7B4E-4153-8E8F-63C3441DAC92
78CB410C-0731-432A-AEA4-63CCE3F29FE8
946BE2F2-440D-4638-BA33-63DA5ACC655B
D6043373-C1C8-4A17-8E24-63FB3859D200
F6BED5B1-C68D-4786-88E1-64057CF5CB9C
BBF5647E-892E-43C0-AB24-64317E8BE94F
403AF40E-0460-4FDE-84B3-64F222898828
828753DE-CBE2-46A5-B7DF-65166E365617
2CED37CD-3E7F-412C-8207-6516C251FC53
99540F32-22CD-48B1-B8A6-6524C7E31C2C
4F96DEC5-BE43-4359-98AF-6529AD3F2196
E1CAD878-F61A-4FD1-8873-653C19802C26
14BB0EFF-B7D3-4A6A-8AEB-6557000EACAB
AFA25507-DD4C-4139-9B98-65875FC133CC
CE99D9F2-8EA5-4647-8982-65F3CADFC603
D1B856EF-0F2D-4F9A-9041-65FCC7DFC964
15CF5372-BF4E-45F5-9117-661977C9CE98
928AB0AB-1383-4E59-A1C2-6632AD23CC92
46CCDB99-84DB-4A6E-996F-672A27442CD1
D4C995E3-680D-4FCD-B572-673C518DFBF3
AB3125F5-A669-456F-80E0-6748805B7920
1EFF9FCF-4290-4146-9BCE-6750FD5C8A13
72CE9868-88DE-459B-ADF7-676B2CA2FF57
0F29A931-C159-4E44-A7B2-6784BF1E3DCF
289E7337-EF82-4D7B-A17C-678A9D228F12
4B8CEA34-2BD4-4540-80BC-6790B102EFA1
83F9A4B0-3E26-4C15-95C1-67BEA41EF053
92AF28CA-4DB7-43E0-B829-67EE27B5A936
2EDBBAF0-D853-491F-9F87-680327E090BF
40EAD605-C16C-4CDE-A849-68270FB93A67
79E62375-CBA4-4043-8E8E-683A181345D1
17D76EFE-D180-4D57-8390-685EE54FE352
31E3AA35-8E38-46B7-B88D-68788F61507A
B735948C-484A-416A-8808-688696EDC628
3A0055EC-28B5-4F07-BBE2-68B673AF02A8
CAE7AE86-A1B6-4A02-B9FA-6904FF47F4B8
49906C72-5B7E-467E-9EE1-6906E934FF71
37612E02-AF58-483A-BD23-6967901CE0BD
8BB99500-EF2A-45F5-B467-698A0C690AC6
D1D9C035-7E3E-4539-BFA2-69CDC9354983
6311316D-3474-4E25-8735-69F9ACAFEBA1
71FEA036-0EE6-4E41-9FAA-6A47678EF782
121B68BC-F08E-4BAF-B177-6A72654D485B
FC6D4D2B-8929-48F1-A1CD-6A97D441AC10
6ABC7DD5-D1C7-4AD8-B435-6AAFEDC75617
A654F0F3-F7DB-4EE8-8C1B-6AB6BF040C8E
4E5B055B-5E3A-4922-9B7D-6AE869DD9DCD
3733A5CF-012D-4ABD-825D-6B062FE96495
5CB09EB2-0E2E-49E7-B0FD-6B3C6F9B6FD3
3AFC13C0-DB73-4AAC-8BA6-6B70998CFB92
416B7982-1BCD-4799-A17F-6B8CB82B1D1D
BD23D3D9-8C06-4ACC-A808-6BC902F5140A
19E3321B-BBCE-458C-8089-6BEA336607A3
03BA8217-25C0-4995-9ECA-6BF952D156A3
C32051CF-106A-420A-8708-6C28F40F4413
4F5565C6-F9B4-40F7-9C9A-6C2E4D1AE339
BE5048F3-DA37-4DA6-8552-6C75D701CBBB
6675D384-E914-45E4-BA02-6C788AD9E6B6
BCA2CE94-30A4-4D07-AF30-6CA2E63F1939
8D587990-28EE-40D4-A363-6CB97F1E2801
4E580F66-7BE5-4B59-83DF-6D00A253820C
C6255D3F-5100-4257-8996-6D084B786C66
EC606C99-A2B9-451A-BF8A-6D2A13EF9DF5
52B31020-A937-4675-B85D-6D2FB226BAC0
CEA09FBE-8294-4D79-A803-6D4333723309
35274EBE-9889-49A4-BF4D-6D48FA638004
6B328152-5308-4CA8-AC76-6D6FD1EDDCE8
3D8BC05F-F20D-4783-A754-6D77136378C0
C53FC1F1-D73B-4A70-A6A1-6D8399F3ACB7
550A8B43-7F5E-4775-999B-6DC3B3F3B314
BBA776EE-021F-4BCD-805A-6DDAA5BA297A
9754052B-DA58-4794-B589-6E04422E771C
5F2FA829-705D-4FEE-867F-6E39CCE136E3
CC9F2089-8139-4907-806D-6E5317BE9C26
F5B87204-6977-471E-83FA-6E5FEB152FFA
BE76F488-25DD-44A1-989A-6E6866B51DF6
779C1379-8FCE-49DC-B2AE-6E7A62E453C8
E212E26D-DA0B-4B28-AA85-6E7A77F45647
CA71173D-C117-4DA4-8F5E-6EA1419CFE7A
48BD9ADD-F4A3-401B-81D0-6EB8E3ADCCE8
55E7BBB8-9267-460D-86F9-6F1453E1F060
9C8FD7BB-7813-427C-B111-6F40538FDC2E
433A262F-62DA-478A-9479-6F5D955F6BD2
476E1E82-1551-40BC-B97D-6F7B017206DF
D0CF11C7-BE56-47EB-A273-6F8E91B38B24
AAB6F289-9F28-4CE5-B382-6F90E0C0F76C
AFB2BB6A-256A-4E1F-8863-6FA76BCC4A29
25188508-5615-45A2-B25A-6FAE48AD14A8
B7A73549-D48C-49BC-91F3-6FB7CBEDD0D1
F825BB72-E4BD-457A-8973-6FC166631B40
42E8F6C1-C600-4007-A4E0-6FEF6B1BCCA6
665ADA13-623C-4C81-85F8-70D74180F82D
69C060DB-4532-42A2-A518-712ACEF2E5E8
77729665-1AC6-4CD8-AF57-71363D2A48BC
450BD6F9-0625-46FF-BF71-71466AA967E1
F23FCF24-7CF6-4234-9057-7175F9BF78BB
0DD179F9-0438-4B16-902C-71BDA12C964B
97FD47C9-D7DC-4B07-8156-71C920B9FCE3
4FC81D93-26CB-4B9D-9439-720F22C9F99F
D44F12C6-E720-4C63-94FA-722C5EF1A0F3
700C5975-BE95-4DD2-BA34-72382369DC0C
C5CB28BA-39A1-4262-A727-727ABBD5BD73
5A0A54FC-A1BF-4821-8D2A-72E2765455FF
906AEF0D-25A3-479F-9409-737F40567B9F
B70DCE92-B625-4E2A-A229-738F157F778C
75B845E4-6E7E-480F-9ABC-73E3DA275E86
CE279CA8-4602-4ADD-869B-7401476ADA40
517403B2-9277-4C10-BDAC-74050D9DA12B
355D00B3-EC17-4B42-B193-74212578C1B9
35C5D18E-0EBE-4E64-B353-74331D043EB7
CEB58EB9-7C79-4A04-A058-746A63F9A196
1E865F6B-A963-476D-A8D8-747E250FE6B8
7DDA3F30-060A-498E-B836-749192260EF7
4B3A02DC-33F5-46B6-A179-7509C224B13B
55FC608E-054E-47FC-993B-751DA5B978B0
F1BC3476-C8AD-42C9-BFF3-754CAA982EA2
57B19F8F-93F9-4BAE-B267-75C27BBA53FB
26AF2E44-ED94-4B9E-9848-75F21A1FC18F
5DAA73B1-C97C-48DA-B288-766E83646EA2
7A5F1711-7823-4449-8DA4-767D17D1C841
C007EF0D-A44E-4343-8338-76855505E3B3
C3EB6108-29F7-4384-A385-769F8D420042
54637C05-B396-41ED-A11F-76CC4859E366
A4500123-74BB-4EF1-A25D-76E6CFFAE4AB
8F03C9AB-6B1D-4AFD-BF8D-771A19D32530
E84B4C5A-5AA3-4207-9777-776369D47602
146F57EE-08C3-4A1E-B0CC-77876B47D3D1
12C548F2-F165-4401-A955-7795B1B7C433
C47C21D8-0431-4A1F-91E3-77974893FFF9
0520109C-6884-4967-9898-77BB2C46B231
F48B008A-6AB7-468B-B53F-77C5591F9C03
2CA49707-0263-45CB-8C38-77F558CFEAF0
A40C0FC3-1ADE-4C7B-9188-78191FFE623C
6A1D5E9D-12ED-47E3-9CAA-78215709DE37
11C2B26B-D295-44F4-B9A6-783D893E1234
A95CD9F3-F477-4CF8-BEFD-78670BE64664
DD0A3C87-0D28-455B-9557-78744E9EE0CF
9B1947DA-F9FF-47ED-BFDF-7874C80DBF84
65DFEEBA-173C-4AA6-A344-78B3D1019081
88571D82-1BEC-4EA8-BD55-78FDDF2533F5
07E2E3D6-EC6A-41C6-AB04-790D02ABE24A
21AB8599-324E-4D1D-8161-791184561FB3
2A2BCCB2-D828-4200-BE62-7916F4A2F978
1A08A9E0-C537-4D6D-86D9-791F15E833EE
11EEBCF6-B082-44F4-BE34-792A6984AFF3
688CCA71-22CE-45D2-B2E8-799D5C7C2807
E19A6136-CE59-4360-B02F-79B94026478F
45574D2E-88EC-48D3-A6F2-7A2DE14D1469
7ED752E9-1F87-47F0-8B19-7A3222ED92D1
02571262-268E-45EB-B134-7A3E6A11EEA2
C5A53AEC-3A73-4881-AFD7-7A468BD02250
C85A4BCC-777A-48C1-B831-7A70A740E962
7A73C231-674E-4849-95B9-7A8102154109
A3E2877E-9814-45C7-8BBF-7A981265EF46
50EEB278-5112-4049-B5E0-7ABCF669AF33
6831B82B-33A7-4983-9788-7AD5EE3B0BB4
3F94B891-7359-44C4-8253-7AF6DC9FCEA9
457412C0-1726-45FC-94E5-7AFE88E15D0F
5575B25B-C2A7-459F-8D42-7B0A939174FE
DE310D73-6FFF-4E82-8F4F-7B16FD45264A
130D5135-16A3-40F3-86EF-7B29A6B6617C
319A725D-CFFF-441B-9D58-7B4987D698CD
982D3784-CE8F-42C6-81CF-7B56FCEA65D1
7FE94F91-488B-4D29-8BE3-7B578092ABCC
13A6000A-A564-4A2E-AA1A-7B5C6EF00A45
D249C450-779C-4655-8C2C-7B6A58F2A9A0
E5BAB0C9-37E5-4B2D-9CB9-7BC7815D6AF6
A4BAF67F-F4CC-4FE3-8198-7BC848BD9A76
08989CA5-5F13-41F5-8C09-7BE82AF02C11
DAD5FF09-6EDA-4957-800F-7BF30716BFDC
9B143678-912D-481C-9B81-7C1F8133076E
EE108191-FD49-453E-81E9-7C682F0FA3B4
465B3ED3-2C60-4763-BF37-7C7718D9A41E
11BD1086-1189-4AD6-9CD5-7C967D32A785
0FA5DB35-A8D9-4212-9D6B-7CA0B4A1DE2A
7105DC5E-3223-439C-B53B-7CABC1DFFAB2
85443D8C-B866-403E-A379-7CC3BDB53730
AFA19BE7-CE31-4D2D-BBF7-7CEF978F3850
3CC357E5-0E1C-41DB-9A5F-7CF0B3BE3843
5CD6DE75-DCDB-48C0-85B5-7CFAB7EA6620
A7A675E5-E003-4FCB-AC70-7CFB07B7E0E1
14EA6192-CAEB-4E1D-A8B1-7D0F17DF4F2A
F5BF11B1-6C5A-44F5-BF78-7D4706E81505
26237257-B15B-49E5-A1B0-7D8ADB1B4B6C
30E42153-7157-4B1B-B679-7DC0FE3C0225
F98B7EB2-8DC6-42BF-83F9-7E03DE41B634
0E6F7E78-1F6C-4BDF-90B7-7E2CA02881FC
67FAFF3F-28D5-4AEB-87AB-7E2E91D02B4A
81E4B1F0-E259-431A-8066-7E92537C5F91
856BC314-49D8-4200-A612-7EC5B9F15064
A9F1D051-191D-42B0-B73C-7EF03748E3DE
546BEC70-A13D-4626-B4E4-7EF370657E79
361094E9-E0CD-427D-9A5B-7EF3A1C6CE9C
32099E4F-164B-4799-97C5-7F073787AAB9
60F1A46B-3A25-4ABF-9261-7F34473620A5
49702245-CB04-48A2-850A-7F3B7BE95731
88A3A57F-097E-43E4-A8AC-7F6B04DAEC51
02CF73C0-E976-4495-89B9-7F90BA9F68D2
D7BD330E-FA33-46F4-AAA0-7FCBB63DFFED
D2C264CB-3F9F-49F8-B282-8013CA986CF3
E0E8E53E-4509-406C-BFE3-801BCF86AC97
FEBB3E8C-D99E-47F8-919B-805772B793C4
D8657CBE-8F20-499E-950F-80C1A3A56CF6
BA1AD459-98B6-45F7-8086-80C5217046B8
A3D053B5-60CC-4F12-9E2B-80C81550DE98
815930C3-C809-4641-B347-80DD803CED1A
14F80504-5946-4EF0-A6FF-80DD8E7BFDDD
5EFA4205-64BB-4609-8770-810143D535D0
56E3F4B4-2A5A-40D6-B5E2-8101FC08151C
9556499D-8458-423D-A674-8160BAEECAA8
E1FFF22F-DB4F-459F-8621-81D92940E1CF
DEBA11A5-186A-4F83-B077-81E8C608411E
A0AEEBA0-C19A-485F-89AE-820263486F08
C8139EC1-4FD3-4076-A3A1-821610F496AB
BF84AC04-EEC7-4C9C-893C-8247DA0BD929
B9432F46-6BC6-41B9-9E1A-82630259308C
38735569-1955-44E3-90AD-8274B1E26515
F6C6D366-7628-4B1B-A743-827C9684B17F
43428FA7-7035-4BC5-8D7A-82B552CAEA45
EDB4B9AD-5BC2-4E00-8602-82CD00C7FB21