D7B3A66D-F570-48BF-9D78-20D264599AE9
77E1CFD7-AE2B-4A7B-A424-2D08C2DAF71C
6570688C-5A7C-4C61-84C9-5093155D053D
826FA2B0-DC40-4AAB-ABDE-9E8B688B4617
791994F3-98B5-42D1-8310-55E5A246AD4C
CA1D8CFE-8441-428F-8ACC-305113F7F984
499F4DAC-2F5D-460E-8929-1C2BBE4786FC
38A56D7C-4C3F-45B6-84C7-4A4AEFB4E7F4
366DD7C3-B584-4190-A18D-F9DBACEEBBE3
C394E6A3-F4FA-4916-9482-B7C96E602C04
06C1D4F8-FED3-4205-85B7-2CFABA9505AE
2D78E6F8-9DF9-4D6C-9C6E-D48D93E1C8AB
F47370CF-1193-4849-9F4C-CF110C7EB9B1
CB1C2170-39A6-4862-9D87-F137D4F4A076
918D2855-BCC0-4A30-B8DF-65ECD8545C16
AFB7EC39-92EB-49EB-A6A0-1D2EE175C25F
1D894B05-73FF-4E74-AB4D-7940495F03D0
AF2E6FD4-08C1-40AF-A4D0-1214A9DBDF0F
3358A6F2-2551-49F3-8C87-1050C1582003
44562145-3D3B-4302-803A-8E7F8EF4F158
9D5588E3-8A83-44DA-950A-A42CEF150509
0A7BBF41-A1E5-44BA-A568-03AD1FC6ED3C
5595E819-0BCF-48B5-871B-790D39CCE983
79E1232F-C61E-41A2-ADC3-DECBE964610A
E4594CA3-A91F-4669-B931-B83FF921AFA3
B6555C54-C9C6-4E2B-817D-CA1F13AAD05D
BB0D45E5-B4A6-471E-ACA7-9E38BB0707A7
CECE35A7-7723-47DC-A586-5DAB489E7975
89945690-F58F-4CC5-BF7C-5E32315D5477
4CE5B6B8-64A3-4979-8DEB-80E6517A48FB
9C0DA3EE-4BE2-471B-BE90-7F74370F4514
601B2DF4-5403-485E-85F7-508F1EB5B1F0
A93B6495-6C1F-4323-A21B-A1319E340D5E
5EAE2F8C-7E3D-4A3F-9F29-E82DC05B3CC2
B9B7506D-2C59-432E-A838-93CF1F26A872
AFE13996-5D82-403E-B31C-6F20F741001C
F8AE71C1-EC6B-4028-89E2-5AEBB636642C
F4FD2F0E-40B2-493E-A810-19CBE836697A
496F4332-4A3D-4F92-A49E-AB3FB0F83FCA
0150882B-A575-4A75-BE0C-DD0848403B2E
2545A269-3B3C-44AE-8757-C0DFFBD853B4
A2615FA4-D4BA-4ABC-B916-EC1622F7BD72
85F395FB-7415-42E5-8076-0825A3EC6405
B6319DC7-5259-4935-B51C-E65C4092244D
8E300644-BFFE-496C-B906-8316E185208F
9A9CC09F-515A-47A4-936C-1701F019BF40
555C5911-76B4-4823-836A-3928E52343FD
D6CA3929-5ABE-4641-8F69-D823639F9A1D
530450C8-4943-408F-B9CE-759C0847F0DA
7DA86E71-DE04-443B-A9A4-A6F879A1764B
F592F780-0BF3-477C-B0BA-ED9EA2912763
80B9477F-B78D-4180-8329-94EE9139B093
903712F8-A1A6-457E-947A-F4392FFA8838
A8688E70-9E07-4039-AFC8-898F02A44180
85A83257-3ECE-4CE9-A71F-36772DA9E34B
685EE89D-5298-441A-9CB4-E5E01B6B9484
B83A7021-1581-42C3-8AC9-4A4D40416D99
060F5F42-002E-4950-9423-CDD66FF57983
DCA10E4A-4539-4210-B28F-48B191414582
4A6C70C5-1A59-4735-9F39-F3DDC81F44AA
2F1CB99B-B426-4D29-9718-078735B98B40
5239F438-E662-4BC7-8468-8B2E2AD5F0C8
43FDF5F3-69D0-4CA2-B495-D5476C3556DF
3E7163FA-9666-4267-8FD4-6B92BC69738C
31590125-8DEC-4A8A-B745-1A6400FC2E25
AA535F1A-305C-4FAA-95FB-AB232B135AAB
ADBE6793-F407-4D4C-8480-A533C98D2531
9969B968-E8BC-46CF-9E5F-CE6E9DCDC798
340D9435-D779-474D-A1AE-05DAFB7AEC29
FC1115C1-D61E-410C-A02A-410DD863BDDE
B5A43D50-A518-4348-9F5D-3F3E10260487
A280EAAE-7594-4C11-A1AC-1026CB3CC22F
FB9AF105-D3F4-40D6-8CF5-56D7A08C1739
3B79D34D-D408-407D-8FA6-601EED9A42F9
E89F09B5-5F54-49A5-A06B-102B52AF3F5E
397FA3DB-D793-4B89-8633-27EE48BAC229
4B1464FC-4639-4BBC-AFB7-114C70CED1F8
2B2B4F27-77E7-4385-8FB1-6D85A1ECD824
FB3B9D84-3E94-4DB0-8622-ECB88CF1A9D1
B28B8191-D62D-4A5D-A7B4-76F02BCA7473
820A1FBC-B7B6-4655-B20A-2AC5ADCF5FB7
D5AA601C-1A4D-4237-9909-9FA231E28ECA
37E45B5B-DBC7-466C-B625-9901D905AA06
AEA1F93E-D6AA-4C44-816B-CA8D0B389D43
65B55D34-973B-47EC-A1F9-13F5CA8DCEE6
73F6B905-70DD-4C06-AAB7-93128835D4B0
26FA04B4-8AC7-4214-9BC1-5D7963FC5A08
9CEB84C1-7114-4CB0-9FB9-92D90E266020
A3A06188-DAEF-4339-9E47-7CA8D0AE2062
511058FF-7188-4FCB-9C59-BBF09E54A14C
3EB4F90C-C932-4745-AAD8-E08B5D289330
624036CD-794F-42E2-AA6C-F65D199E39B2
D059C30E-C2F3-45D4-A90E-D626133C4A67
EDA73DAE-81D5-4001-BF0F-6B7E94443237
13675B92-3B7B-4418-A6D4-AB92A842EA87
A4A7F6E3-37F8-4ED4-93AA-8DCE4FAE48A9
C5E3D470-888A-4067-8C3E-06318B126473
49787498-F537-4278-BB3B-A32E928D2F31
0070B878-8570-4DD2-A368-AD620382153A
74B4AADE-5DB1-449B-8854-2D58BBAB14F4
26F13980-CAD1-44CB-8037-C3A832ECD3C1
3E3BFAFE-8B41-4724-8CC2-2F1D0E2FE684
9A092AFE-9E4F-4292-91AA-100059A506A0
A38AD874-316A-47C7-95DE-08CEAFD9EE66
9405341A-BDEC-466C-B82F-5D6537CEBA07
6A222EB5-E14B-4598-BEE4-B9935F4D062C
E46F1F63-DFF2-4FE6-B464-712460C40CCC
B8066F6E-EDAC-4F9E-A764-0AAE51185AA2
C4EEBA62-A066-4E94-9FC7-97BD53AF358A
D544F509-D233-46A2-851E-FB26759D1671
6FEB46F8-0B98-4BE2-9629-4907091506B2
4F72BA55-9715-4F01-908C-2C0B4D10860F
025C038E-81EB-486F-8916-171D3CFDBD30
D661BC79-41FC-4E76-A6A5-3E2103CFD4DC
6C57616C-9711-491D-B278-AF0FED3B59C3
D061A90F-E2B5-4E21-BEDD-E2F297CA1FBC
D56EF33C-9594-4F81-B96D-2055E73FD0CF
A0BCC4C3-AD86-42A0-9EF5-35A3254357FC
3CFC2C9D-478A-4252-8CA6-7F88776BFAC3
3CFC928F-D036-47E0-907D-9E06224213FA
A6507DEA-5520-44A1-A743-590AC92BEABB
E90E1585-8F41-461A-9C09-4B1B1CF33E58
9FEAF7EA-AB8F-44BD-A1AA-C3758D5DC330
13A45DA3-C8D1-43D7-B076-7E436C305E17
5F95BB38-C70E-4295-BC03-076F2870DF70
925EFFE8-DF3A-4ECE-850A-49022F29A0D8
A96B21AE-ADDE-4D27-AE15-F105396CAF7D
1EA7CA54-F512-4DA1-9530-F8DCB76162FB
D0F215BA-C9D7-43DE-9103-715ED728436C
8D6C8542-371A-4544-8316-E04A26CA50C1
C4CB1D27-39B6-4A8A-9613-1DAED1E91FF5
AE965DD3-E77F-435F-986A-3C57C38E4475
700BAACE-6ABA-46F5-AB28-1AF4ABC105BF
E85C27E5-7CA6-48D8-B7A4-A08F2F936DDE
B24E46CD-CFCC-4776-BD92-ED1409A4C02D
035FEC84-2BC8-4374-BF94-561C0951C421
D48DBB9C-3DA0-477F-915C-D6DD3DA69E6D
6BF0D573-C1D5-4A98-A7E0-628EBABEB8F6
7018EFA0-98F3-4BA1-81D2-318CD17561E8
42514678-14E4-4862-8D72-8F43D381681E
EA5CBB30-00D0-465E-B663-5900366877FE
6489ED29-6DF3-4991-AD70-31E902DBA8C6
6ED60300-769F-4D6E-B39C-CAE32C583461
293EE159-57E3-49BA-95A7-9B8815ECA72B
C71B6A0A-FE4C-483C-B2A0-37EF7E15EB3D
0B178C91-8DAF-4776-8334-5F60511FD330
235E8801-9919-4C72-B3B2-4E4AA82DF65C
6C35163A-9FE6-4A51-B898-D092C9CBCCE2
2362EA42-5C9C-425A-A863-0A4C3A579A2D
FE648CCE-3319-4ABB-95A5-9BDD11E1A93B
49D75A8B-D9A0-4F94-B851-7AB931B470D2
5F51F781-5688-4C33-AF31-3B641985A009
85460C0D-0ECD-4EAD-9B9A-D06ED989EF9B
9D7C71DD-3211-46EE-BD10-C61D36B13A35
2613D4FC-CA54-4207-B682-80A23F4A4A3A
F66D6140-2ACF-4A19-B26C-15CD825C34EE
16B2C031-15F4-40F1-9976-2E5CB6BAE46C
8BCFC5E2-52A1-48A3-987B-8C0C09CE7E2E
A4C7D5F9-5120-44CC-AE98-52CA517178AB
4BC44F7A-3BCF-44D9-8DB6-5727085A2DCC
1A8EFBF7-2F0E-43E2-B48B-D30729F5B850
C09D2469-AEFA-47A2-A27F-6988C888F57C
541A2F09-13DD-453C-844B-A7B247DF8622
50706B93-B32E-40EB-A4A7-C8D9B74802D9
1E01D221-82C8-4A8D-A9C0-9EC5F16A6989
96DEE54D-3553-45AD-9D7E-4CE1ABBFB13A
2170E45B-1D82-4B1A-B117-6BE1B6BBE939
8ABD29DB-0213-4947-94C2-7AD248E1A421
99E6BD0A-1020-4122-9483-10AF14CBAE10
9EA14D03-2083-4E63-A1AE-2D5F28E5C6C3
33A32E9C-436A-48D9-88A4-879B1DB39A95
1C16373F-A9D6-441C-9D38-95F4AF6BDFB2
72AA25F0-0A00-48B3-BBE5-ACB76A76D276
C450CF88-9575-489F-A43B-6B769AE0A023
4B88F58E-9C17-4A7E-99B6-BBA01EB35C1F
937F9C74-9FF1-4A56-9DCA-BA243F47EAAC
B22BBBF1-9A88-4F0D-9FF5-B9A14F3E6111
8A58A284-44CE-487C-99EA-D2C9FF33ECCA
CB339DAB-8439-4F2E-9009-E8571BA153E9
DF0DF84C-39C0-4056-ADD2-44EE769E65D2
A18117D4-1D7E-46BB-9B02-06387532A7EF
C20F25DF-544F-407E-86E9-2E52A14920E0
B4C9380C-77C2-4509-8DCE-09DA316616AE
9DFE1DEE-122F-4D25-B070-061663313B8B
E03B300C-BD26-413B-B284-9A9CF18FA86C
B90B36EE-B345-4A22-B9C8-B05717854BDE
0E5D1806-EA76-47BE-AA62-0F2C01E48E06
0FABD41D-463F-4A5E-8276-650D0E220ABC
3CE359CD-E53F-46D0-938B-0248CEF8D828
D77A5536-4A8A-4300-82CF-F3E420EDFBCA
2FED279E-AE07-462C-9BB0-196417CB5C54
78116EC9-9388-40CC-99CC-1B5AC8305EFE
F8A1F8A3-4C3D-4E62-8F66-8823738305C1
F8F2F1A7-D15D-48CE-A109-BE7B4771BDC2
3E9427D8-E256-4AA2-8C39-44E3CD33F1CA
01F854BA-DCE2-467E-BB62-2CC51F76D41C
8B63748F-9D42-47CB-B880-01406D79BB25
2A7BDC1B-380A-4A5A-80DE-AF256BEC4721
A18C3890-FB95-4CD1-9A97-1142DE31485F
8DCC220A-B5EC-47E3-8A4C-9DCAA91D1EB7
990F0753-19F4-42CC-AAD1-9C6C4FC0A777
480C8FE7-2D86-49B8-8671-18DFCBF88837
380E5321-38A9-44E3-9655-B76EE0BEEE78
2F88C989-DDF1-4C73-8C6F-02FB8FE76DC5
E957FDA6-65D2-449C-9910-9284DD14CF42
BE238DB2-0682-43E3-8C63-7C623AC3E70F
89E67EDC-6783-41C6-9FB9-7A06928A7349
8694E295-5769-4A32-95E9-76742C31D8F0
AFF91F02-F9AD-40EF-BF89-C13835ABD33F
C4F5255E-D2D5-4917-9B7A-FE3343F8AECD
0D71E990-CAF4-415F-A0AE-AB3676445B01
398C71E3-F3E2-4EB8-8018-B4481BD3A8EC
D428E411-F411-457D-A39E-88616B03F85E
865BCBCB-6B5D-4A3B-9839-ADD6C87EB24B
303E248E-734B-4456-9D21-2A9837AACA28
0D118CC8-73E1-4AA4-9314-B0B6295E8600
7FA559BF-B5C1-44B1-9799-56FF41CE15C5
B5A5541D-36A4-4BF6-959A-F4545BCF227E
190B9235-477A-4C3C-B49D-82F76DBB060F
6D4BE16A-9029-42E5-B258-7307ABF5DF35
3A00BBB4-BF58-41D9-BD6B-D000D4D16B17
01AF837A-D7ED-42BA-BF25-D6462D684FAB
553ADD5B-3AAC-452E-8956-D0F05AA51EA7
7F3C4B9E-EE76-4833-BEE7-04F5A54CACC5
1B019312-9897-4157-AB8D-EC4CA18CD99A
69CDA85F-AB63-4AA3-B4A9-7EA067A1CD52
06D1684A-5877-439B-A9AA-29295A1BCBBA
53ABFE50-8EF0-4F3B-85E2-02143453EFBF
15A8FB0B-DAC5-4475-B19E-986004125BAA
4110AF6B-EE20-44E9-8E6D-1BD168ADBF31
C81E4E15-C19F-44D9-AAC4-7A3DD2D745EC
5336B608-D1C2-465C-BCC7-34FC9B53E535
E28EF473-FD5E-4BE1-A9A2-EE80B1CDD6E6
E913A103-C089-4E5E-9638-D1705056D172
011A97FE-7A58-4D1D-AC79-E52B311F5D1D
55F99C9A-AC77-45E6-8BEB-AFE794F5748D
AFFCDCE7-345D-4B25-892C-D9541386DCFE
1863D101-A8C1-4534-B748-52441FC700E4
11ED8827-F3AC-493B-9D91-A9EE267A68EB
ED5BCFDA-9A11-477B-9C96-BC7AA3A10459
AC2F6C6D-32AB-4CEA-99E3-90775D55B16D
26EE4346-3CBF-4422-B162-00234F42681F
DAB9CFC6-858C-4D69-AA53-31D6E89F94D5
5DA72F3B-0B51-4E20-A1D8-6F4F93361427
88496839-5EF1-44F3-B073-75E6E42B30DB
AACFF121-7F79-4666-93CE-5FBFA6878875
F2DB8F3F-2F56-4D72-8C44-F574131E9C8F
5B302153-5E8D-4D7D-800B-C20F630F5B20
03C7F09A-93C6-4B57-8AFE-7E0D4D25CB98
FF803D4D-3626-4F12-9462-CF72E293CA2B
D1EF41B4-73B8-4C7E-8E31-AD3BC82A3C53
FAEEF287-8489-4539-8A25-29ED020192DE
46F884DE-DDFE-4611-8218-6C617AED7D39
26A31838-8954-4DB9-859E-7AE478E5F13B
66C6F37A-76E1-432E-A01D-CA9AAF7D4942
7B388593-FE70-416D-A3C5-2FAC6A565A58
97225AFB-B081-4C56-8E87-FCAB541EA15A
6E0CFBB1-4271-45AA-BF76-043F8E4FBC21
4DADF58F-DD75-4000-B7CC-63B907E2B27C
D697A0F7-1C06-4101-9A85-C0A11ECD344F
018735F1-EF17-4871-8D47-3FC5777F8C8B
0F207A38-02D3-4F88-BB85-4BFB76BE7291
FFF4D00D-4A86-41B8-ABDB-49257A31C70B
DB724E03-E48E-4950-93C0-6ED086A07974
B73FAF06-BB81-4387-A0A3-E10AD7972A51
A4A98227-2693-40D7-9D82-4AC10A9CCE5F
5A7A44C6-15DC-431B-8601-1BA0BBA5DD0A
FD1180BD-2DAE-4D19-B76F-50564141652E
CBADA3E4-B3B2-40FC-8810-A88EB330CC93
EFAEDB3F-E662-4ACA-AB6B-585387077B50
3114989E-7013-4CF7-915D-529C7B41792E
51AAA28A-8A72-4A6C-A029-D59956C9AAB0
D6147CBB-B73A-4BC5-9162-DCC7C9A837D8
3D9CD7CB-8449-4BB5-87BC-BC6C29DC0D32
625357C5-1286-462C-A0C9-47395AC00309
3CEC5CC0-5695-4C29-B8DB-FE4B033CAC34
139DFA01-03AB-4971-A4AB-F212A179DDD1
489306C7-3405-4F06-86D3-13DB87396BC3
7AC51D9A-7F3D-45DD-B7C9-5CD437A57AB8
073A529A-7745-4D59-AFA1-DE9B27D38FEA
B42C01F0-B8B7-40AA-9FAC-331FB1ACCD3A
4E491139-3F3A-4794-8F9E-9AC13BA306D5
0C1F20DA-9C5A-4D29-B8AA-ABFC1DFD648B
72AC92EB-2BEA-4A1F-91C3-B52A1BD2276D
05353B33-C548-4954-AF78-E4CC487F0519
CB5F5088-4EA2-489F-A932-C53F30D41362
E7034985-01BE-4DB4-96B1-FC1BAA390DBE
7AF656B6-75D9-463B-9CA1-D0248543A67F
AA16772F-3A07-4DF7-B1B1-3EB142699871
29EAE5AA-B796-4622-B501-20E9BC5EDA8D
E0F7CCF9-23C0-4D3E-8114-084AD8A17AD2
35D6AB2A-4ACA-4462-9FE2-31BC43556A11
C9D8F4B6-FE3F-46EA-B671-29471DF0FFC0
2AA1C293-BB3A-4BE1-827D-8F353A6B3CBD
4D08B187-89C2-4DFE-8EB3-E4E1186AFB2A
242157D8-17B8-4AB3-98D0-1DF1715777C7
45140D1B-86AD-4638-92CA-DD182351F63D
F0A4943E-C0ED-42DB-A5D5-7A54B3E06854
93C1C1D6-8A4E-4D94-B5AF-CAF150D913B5
A1AA2417-FDE2-4F4A-B129-67FBF1F8FDFB
684F67E1-2A76-4E66-814B-685813468BA8
1406865B-5A21-4B1B-A85C-12F8AC866DE4
A9E25CF6-8B6C-4E12-B221-F73C57681C04
9CAF189E-80E4-41E3-A277-68A03F3BF2CF
1372530C-98BF-4D65-A562-17DF1E5028F2
FDABDEF9-CA78-43AD-A3B8-3C4CAC6BFA5B
D9E5327E-0DA0-48DD-BD50-201C62AA6B8A
D23D006D-BAA8-4C13-A75F-673D75EAD866
E1CE778B-BB49-42AE-8682-1E4FD84FBBA7
D7AC756C-DE6F-48BE-BE3A-EA5824421856
57A14453-C520-4B71-AAFE-75CC487D28F5
431ECFE7-38E5-4565-BEBD-DB48E65CBE3F
B269D789-EB15-45D8-857E-8C976A066132
40706C3D-AD25-49C0-A0CA-11E1C9B3C039
81C1EF6D-F0B9-42A1-9153-704E28A9BC1E
081E0647-C6B5-4012-991C-448EFB13648E
6F549A1A-384D-4533-895C-583C46757B61
1715C552-5265-444A-9174-CBE9F22950D3
05E27F51-1418-4859-A691-113481B5C062
105979B8-5620-40CB-9D23-C831AFB5D169
7D7FCD29-2B69-4D10-94B1-8264158E03A7
B7B9F2A0-8CB7-4EED-A966-1057DE570178
29BC2675-2F2B-4D55-B734-4587CD4A7861
47C87664-F081-4488-B106-1986381137EE
DB171C85-6BFE-4DD1-BC2C-5AB9DEFC07C9
507A5559-CD23-4DC0-9A35-B848BFE6FCF6
1FBFD34B-FC6D-4601-9A90-29F081986A0F
9269DA9D-8550-4067-8CF1-DD925FF34A31
1E0AEC0E-C9AA-45BA-ABC1-003D32FA5ED1
215F2725-CB45-41D4-8A3C-8F9A5308C388
F74E3297-62F8-4A18-AF32-13C83A2EC843
0D4750FA-06C9-4EA6-82FE-EAD41CA31DDA
F83C1136-D4EC-4F88-B21A-607500974B0E
7506C538-132C-402C-B684-BAF33ABCFBB0
63D631AD-63F0-4815-863E-8B00C347C5BD
707BA70D-392D-4C93-B856-DA692027379F
B9953C1D-DE6F-40AD-9D1F-BF9F1E68F5F1
28CAE121-9CE6-4E96-A306-4D1658EEF400
D9684ED9-C8D5-439F-AC79-A0B11F8DE399
06CDDA43-ECBA-4E4C-8C51-B2113A0E3872
E6CBEB6C-F0A1-4932-980B-874CE8F671EC
86B1E094-BAE6-42C4-BCC6-6DAA5E6D3D13
559EC1BA-A0CA-4F37-8F14-957866EBC960
C99E6156-EEA8-4F3C-B5D2-53340460A393
3C876323-6CBB-4860-BA97-901110881F4F
EC1487C0-0E79-4220-9CF1-0A79A50079A7
D62705EA-AE4F-497E-AFBE-C52D7BAD6122
6EC783B5-38B3-49C8-A91E-7F5E5575FE0E
EA7F5410-414B-4594-A3AB-2495652AA609
EFC416D7-BADE-4B59-8BC7-6A2F5ECB8597
E6373525-3379-4051-9B22-2AE7A6811042
95E0905F-E310-4061-A112-A8CC44B4C194
1FAD2800-592D-4E84-AB55-C179FA73DAD6
BD0DD97E-D262-4841-923C-2C6AD87A3936
CEB789F7-AA87-41A0-8484-C768150ABE71
79F6CFE9-15DC-4CCE-A095-91069A04D9D7
DD3DA8A7-37E1-42E8-8F81-571EAF468C0D
2733B228-1268-40E5-A4D3-5525DBABD2E7
808F9345-0CFA-48F4-BA5D-7C6CCE33DD9C
ED3CE213-2652-4B8C-B080-0EED568F254F
DF2730F3-AF48-4834-85F4-90CD0552A151
20F5FB92-23F3-4192-ADA3-43BA6A385497
AF85EAA7-8EBB-44CB-98D3-26A5B87F70DD
2EABCBAE-A0F6-4F66-A344-D270F0A73594
9DC444AC-E759-469E-B49A-FACF64761875
9BCF9E58-7BC8-4185-8FF2-33562975939E
1FFC65EE-CD3E-4E4B-A313-BA47E6E33932
A7D501F5-584E-4895-A32C-EF2EA6699FCE
DD0BA68A-6FCC-4D54-A547-4F0F5AF77828
225843A6-71C1-421C-BFA6-2AA83F341028
4376CC63-8FC6-419D-A4FE-A8B66DE37A8B
F8174845-1D5A-461D-A68D-DDF27B0CD844
7EFA9509-56E9-46FC-B9C4-0D22850980B4
E657E1D8-E7D9-4274-8731-758028C88B18
50C86AE2-A082-4910-BC9C-50419B3189AF
2A3455FE-6471-4F41-962B-CA1730FD5295
84EE75EE-5BE8-4131-A611-8C517B399813
1C773E68-AB66-4D48-956F-BD565A560176
8AFB331E-9586-422E-A800-BABAD91ABC1F
DEF0DA73-BE83-449F-A517-B874C5DECAFD
2DFFD1C6-9560-47F8-A4AF-CAEDA372A1A3
3FB6DFD4-1163-4C08-9370-2E77AB410743
6AE95456-8A1E-41F7-8DD6-33DA9EFB65E3
0926B413-8272-4414-92BB-568182E4B43C
B1CB1601-5105-48CD-A689-0179D4BDFDB4
260481AA-D8A7-402E-AF0E-CA1F97D25B70
F8E0DC3A-A57C-45D3-8F3C-DAFAB94FE258
67BEC9DC-95EE-446D-914C-BC3A735B652E
782F4369-EE28-4AA7-9C6C-3534DF63AC6C
194F7E3F-71CB-454E-B89C-FF013F849A98
07CD9572-7DA6-4EA6-9F08-E113457AF9D8
468D4F0D-5AAC-449C-A079-826894F54292
FE8BC5EE-4C5A-4BA3-8E05-2C2AE3C8DBCF
DDC43828-1A2D-4F02-A129-5DBABD6A38C7
3970DD5A-2870-4808-B2CC-FAF1F9A586C1
58AD0F98-6F66-4159-A6FB-B45CD909246D
EFF73B8A-1985-4D00-A32D-7F7A0CB23933
8C59F54A-5563-43D4-B5AF-23D819A46330
C4BBA032-B239-40B9-816A-CE2E94C5260F
19651E75-BF80-4FA6-B4AE-AA16A1CCB624
60D9F16C-09E5-4D34-8314-4A856E57AB07
E6D69764-C7B2-4198-8250-5B0F905FFA09
67209891-FCC7-409C-B24A-25DDF2D25462
020B2D0C-876C-4D13-9CFE-3EA3EAB98368
CA19795D-7D0F-4F67-B2E5-746E63CE564C
C3E6D7F9-AAAC-4475-BF5E-4AFEA0F042FA
ECAF29D7-B9AA-4803-9EB2-E184B4A7C965
EB6E4B59-1F36-40AF-B5B6-A5F9DF4126FC
50E9EE4E-4EC2-4108-A338-62F1E0A0CE8D
9D3204F0-B6E0-42B1-B33F-FE2CA011BDD8
5B7F8A9B-2E1E-472D-95DF-387A60FB1021
C2FBEF9A-8383-4CBD-963F-85D83CC71E53
3B98D90D-3177-43D0-9902-23E36DE2246B
5392F2CF-3832-48AC-AEC9-A7EAD448E406
4DFC4C95-66A5-4EFE-873A-9B729BF09609
E1C7014C-1CF2-477E-A175-C88280626995
62CA155B-5FE6-404B-AAC6-7B060C3B8F5B
6547827C-4BD0-4EC7-A1B2-DF7BC670673D
BE3C0298-ABC5-44F8-918D-560C0AD213FD
0D8FEB0B-5812-427F-A3A1-3B29A383A2E6
BE0BDC6A-A656-43A5-A449-36B002E14CD9
04D28A34-5BB1-4F12-8027-14C9D38066FC
564CC329-2270-44B0-BB54-F8CF124B0337
9A1602D1-1DBF-49B6-BCDB-3EB5A0826A12
AE177337-14F5-4E67-83BE-1804428C9ECA
1D132A44-2FCF-429E-A107-BFE3F93DF07C
CE941768-7A73-456E-A6BE-91448C821359
1196592D-C8C6-449E-BB6C-B88126F806F1
078034CA-6A61-4142-A841-1B4254B67B36
8003D579-AF30-46A3-A047-BE9D887FB5E1
88B9B8C3-C233-43D1-9697-53B34DF68341
99081BC7-8E2B-4B6E-BD34-F059F449DDF1
8605A164-62D5-464E-88A7-DAA08DBD5FEC
6A3A1A13-AA2E-4438-BEDB-BCF047886151
1C5662BC-C05A-4B66-B4AC-B27CC261E054
914A5D4E-1D90-4C48-9648-F459517C8A46
C08FC00C-7CDA-4E61-99C5-44EDDE9FCD14
F38A8DD0-481E-467F-BF2E-FBB5BE5578EB
7E79F209-5307-4257-9556-CAA3DA3E7E1E
C092FA51-E031-45A3-8A2E-981ACC3E3282
4B358888-34FC-4070-9E49-B7846D0114E1
BA860E8C-314D-4CD8-A8AB-42AE739014C6
4D9092AE-3596-40BC-A9BA-483C576D07EB
10CF49FF-6849-4BCB-9F51-8F39599967B7
ED9A0B91-75C7-4617-A4E9-29615069BCCC
7342C792-DB7D-41A3-9B4A-B43449F4F031
209008EF-2037-4209-8F97-5A1765FB85CE
E7D1782A-6F11-4ED7-A826-A4B328205B18
E00AD7B5-42B8-45BD-9302-9A22BC662910
A0AD85A7-4C97-44EC-852F-628619EC4377
A51D03E8-3FEF-46FE-9904-059E962A9E72
3037F684-EC81-4288-80B1-7A1CEF8E5F30
2668EE00-00B4-4CDD-ADFD-5B26EE356E5C
CDD96545-8AF1-4994-82E0-D2685144A280
90715B43-B5CF-4B16-BBE1-95B8EF7C4372
917CAE69-A3AC-4C33-B98B-136BD5C2D763
3865A45C-935B-476F-A80F-28BA31362CFE
35B8AC03-2BE8-420E-97F7-5ED2502379BD
BB227408-34D0-4EAF-96E9-AEEC73C3730C
1E799377-4D4C-4BF1-B23F-109E33C73DDC
4EE9BA61-4DBE-4701-9203-BFF35320FF1C
025E1289-C8C7-4C87-A8D7-566D41F41CF0
DDD0B15B-0CCE-4183-A05F-FA631BD6615D
CF123E46-3907-4EAD-B41B-0655EFB73640
D78F9174-DB22-4317-8546-8CDD098110C2
8AE4D586-2F33-4F88-9BAD-BA2B346C0E0B
DE02DD3F-AF21-4F4D-83EF-3EB082C49B04
A6F5E6B6-D9F7-4602-919C-07EE1905BE25
81042259-6E9A-4523-A310-C2C8838BC745
DAAA7969-E171-48E0-9FE5-541F40A36390
322AC607-4B23-4B15-BA2E-3C856A922CC0
A3DC651F-1402-4CA2-8D82-010F93B964CC
FA6C7B59-D152-4171-B061-FBAD00BB5A0E
F61325B6-9E72-4B0F-AF09-3D9CA3621688
6E01AA3D-7473-481E-BFF7-C4664EC927C5
125B6491-0780-4CD5-9808-DCE45542CA7A
D70CD822-E5EC-46FF-AA3F-67676C2E41B9
2ACFDBC5-005A-4C48-AA76-DCFFB7749643
059227F2-358D-4EA0-AD5A-385261405B36
6097B4AF-1BE6-466A-A802-C12E2574F945
4E125E3E-800C-40AF-9950-7D4B70B8083C
628845C1-E30D-4637-92C4-AFFF5C5E5C9F
538C83CC-701E-4A0E-9A82-84AC43FDD58A
DCA68FE6-51E8-49AA-B815-E9C5AED343CF
D21AD512-0312-49AB-AEE2-5FAEB953F296
2F970498-26B2-4639-968D-636EFFE2467E
BB480032-48FA-4888-86BE-FAA8B0470E41
DE4BAFBC-0244-4DDE-AA3E-3AED91B3CC01
6A083DE0-3768-4DE5-AF95-73176D23E87B
6A72B5A4-86F4-47ED-B0C2-D973A58600DF
45A99CA8-686F-465F-AE31-398D6943D932
BCD6C631-2D9F-4C62-A4D6-2D53CD0CEA0B
FFA21D91-F7F7-406F-AA22-246A009C5594
4F52B7C5-D362-4182-9BEB-F4CA8A2DE186
A330DAAC-F48D-4135-BC30-952212DD613B
2A8D5167-B3EB-4625-A34A-40EC5AB31689
CCDA0FB7-04F0-4EDF-8929-776DCB427185
ABF5B424-D55E-4E9C-B8BF-3CB76574B8DC
9692AF0B-FF05-421F-A0BF-B02BDEA6AA5C
8F140273-6E3C-49BB-B1CE-8F3D80DF0E65
8ADED209-147D-44D3-B01A-04CAE67A797A
9033DA5A-D2A9-4CE4-8B65-C798323AD7C6
7ACB0E61-23A5-4C3D-BAB4-C7D4A679F0A5
460022D0-7DEA-4254-B2D3-5A146B908DB3
96EB6557-3EB3-4A66-8B90-0634CA4F3D9D
010DEAA6-5F7A-485A-BF5B-192E129F8E5E
BDA39EBB-DA7F-48CB-816A-265D410CEDE5
35E21330-A63C-4973-8766-C1D2E385CBB3
8F43131C-5DAF-4B78-989B-83D060DE54C9
9199D846-D56A-4D80-BAA9-F6DBFC55DB0F
CEA4F8E8-A313-4757-B586-44BDDB022834
F8ABF8B4-82B3-42F1-B92E-7C75DCBD2967
472D2330-3E42-4139-858C-0FD2413AAFF7
542DE497-B94D-4594-9A0E-9A9B63584718
50C08160-4D9C-4B3D-8512-9C6EE2BBE392
8FF7A067-397D-45AB-8BDC-B5A9AA49F3B7
70DA26B4-FE44-4189-BEDD-63C9D0A47A6C
563A828E-0AA8-4F33-A274-FDCD1AE9BE26
B6768AF0-FDCA-4280-9F48-1FAB65DFB404
E2C5D1AD-60C6-46B4-98F5-2EB245A4477D
915BC1F0-2BBB-4115-B67E-8BE6B129BA08
94D4F95C-AA68-4E84-B20B-4858D1ACE72D
D4D03146-D01B-4691-8814-F3716DD783DC
612E0A5F-7048-44CA-BBC6-DBA99714EBF2
321D48AB-D864-4AA9-9176-4A4514AC7573
FD739780-D40F-4777-B956-0D549019E8C3
696588D7-A3F0-459D-AC94-905BE922A19B
F7F3A774-8B2B-437A-BA2A-8CC45434651A
90D38733-82D0-48BB-8518-34A243B62D4B
C030F0D4-89BA-4DC8-A1D0-6289EB719526
103D8617-391C-4238-B044-3701A1D2C9A1
257AABD8-3D68-4DA4-8A27-FCD22E5D12C7
46B7FD3C-EF43-438A-A90F-371696E845A3
EED87EAA-23DE-4109-A5EF-66A9D8269519
4558F678-78A8-416B-BA25-B8CD42AA26A6
392F5AF9-786F-4B12-A15A-95B8115C309F
61B1F3C0-D803-4D36-8338-0DA16C58AB74
AA7D2B4A-7003-4F65-BAE8-EA54EF882EAE
0EDBDD4B-E592-4808-909A-136E6980D7F1
EDB5D70C-B528-4294-A827-BF5B0D71F701
27E4A92E-98B4-49A5-8CF9-51D18C0013FC
9E2F12C5-FBD0-4F83-9B1B-3A77B00882C8
18033383-5C9D-4B5C-9244-F52CE4E5AB2B
D031D5B0-99D8-4A05-81B9-46D9BD7B321F
9AF09968-1F19-4713-A751-EC949D75CC02
2A3188CE-9E70-4167-BB6A-66542BD1E6C0
BC8CEEEA-0B44-45B6-89A7-2FE541C68FB1
CBF82012-79C6-4DCB-A8D7-8ADFFDD11E20
C1B00834-F70E-443B-9BA9-A3FA1D8108CF
CA2F6CE1-5985-4BB3-9E55-D703CC5DFAA1
56E078AF-B6A8-4504-977A-9665DA99474D
0DFE2E83-159C-49D8-ACE0-08F7741A5CB2
B6A9B5B5-851C-4A25-BA8A-BEF6CAAF5B75
A012F8E7-A84B-44E5-AB95-3197AFB25450
E7046837-D280-499F-9B94-1E89CFA1C494
6C585030-0345-47F8-9290-75FFF25131DD
A8F42953-53D8-4AD0-907B-5B8CE1EB754A
D9D1F551-0C2D-4DA1-A243-A7150D2AA7C3
547CDC11-6E5B-4382-8328-1F53A665A19E
1A8C5E3A-6B67-46A2-BEF8-35C05FE238AD
058F9C89-32F6-4FD9-849A-CC60D0C74373
B97E7020-832A-46B5-A8F8-58E438D6CDC7
85D9A6DD-3151-4D64-A63A-F49F551C45D0
C1447162-CD62-44B4-B6FE-6EED4B6F1490
4EEA182B-F5D9-4872-ACE4-BC52C707761C
3C05322D-F1B0-493C-97CB-C8A2203E1D70
94D1AA75-5A6D-4475-85EA-BAF03D78141F
A69A8B45-7B21-475F-AAC6-3AA8CCBD010B
0164E002-908E-4D60-8209-0EFBF75A2DAA
A80577AA-9574-4409-9161-48B8F114B51C
C257DF65-3CE7-45EA-A366-44868BDE3460
94B1B178-DB24-4D94-A250-5106BC04B441
13648348-8DEC-40CE-934E-8CFB7DFE1EAC
FFDEC8C6-01D1-46D6-8B3A-58C0D5880BCD
4C6FA87E-25B8-48F1-9877-F0B1E9009323
F96D831A-E5FC-4C72-A7E4-C5CC39133156
B8B0C6A5-4F07-41CD-8163-3B682C83883A
56AAEC4D-8D28-4CFF-9A09-EDA15B27B67F
AD49EDEB-4FEF-449E-8D44-1614057A37A4
6E2BFCF9-B8BB-4D20-8830-D593E6CFA199
0CCAB9F9-9931-49D1-9755-9332D0A8C50A
78D99B66-6452-4E34-A317-522AA4BD29F5
AD739EBD-B8C2-4B7B-AE36-AED06BE4D2AD
1C6320A1-EDA5-4288-AE80-F043BC76EE41
2A03F2B9-5C3A-4218-9403-C44BFD750828
AD7B1342-6537-4BF9-B3E6-7AF34AAAB88F
63D6B6B2-9FBC-47F6-B339-A98FD6D7CADF
803FAD2D-C2DA-4F7C-AE49-1A8EF9E1D265
0AEFAC92-B0BB-42E6-A67F-520F37BB98A9
186EC76B-DB3E-42C4-90C2-C9E1DC126B5D
85907D71-E594-494F-A20E-8F53023DC125
608593C1-72B9-44D9-A6ED-660C4CBF0583
6F098D17-9CCC-4EED-B7C3-01D023FC0DCA
35FDF3B7-C5D9-4008-8F7B-89107735FF08
51FCA977-7F7F-4904-8B5E-27789C8D9482
80DB18DF-85C6-4428-A753-6C44C54780C9
AAEA8E6B-A2A7-4E63-957C-0C1473F4A81C
8E372332-ADE7-405A-9270-D65C5BDDAD70
01371FAA-CB5D-4AA9-9632-02B4A0665E41
09801080-5F22-480D-B160-6CE8BF991BD9
5141C92B-E00D-4C24-BE91-8D07AFFA29A1
4CFE9324-8280-445E-973A-41A5B95DA055
7EE5AC6E-6E60-47C7-8F0A-52088C9D686B
522CDB70-4DCC-473E-BFCC-011518A2197E
445D7C05-1644-46B1-96DF-71E69AC1559E
EF8E1598-B0E5-4070-AA15-B90BB5F410D7
11A4F5C6-41AD-4515-BB81-CA75338E7B4F
835537B0-BE38-4D4C-9EB2-F33A98697E90
EB719DE8-2939-4F4E-8784-ED425762BC25
EBA68C6C-2762-41AC-B569-1B36649678A2
A743F08E-2FDF-471C-8D75-0073F5B17CD7
01FD6CDD-63E7-4951-B39A-2030A135F571
EF5D1A05-E04B-4677-A1A9-57D970D06CAA
1C1533C2-1907-4C07-9A89-BA6FB382DD76
868D6C5F-2BF7-4A01-8B35-F1D63B3E09D7
79737592-7539-4CAC-80D2-550821825D28
052379E6-5443-4137-8B2F-C38B5C500227
1F9687C1-A2B7-4CFC-A69C-C7510780514C
3764DA21-7847-44BA-B731-1BD18CEB7D9A
043B1747-0D92-4730-B39F-3D014A5E297C
B27FE704-A73B-429E-A943-1E5D9D8A4D2F
503B1916-2A7C-4A15-931F-C636C178B8CF
310E711D-B175-45C1-A12B-067962BAFF78
12F35380-F782-42E0-8102-C4083B0395C0
E030A220-2AF6-4F08-A67D-E43CBD08D1AD
9A6EA5F0-78F8-44C3-BD72-C6BFE8BF340B
D2C512AB-807E-47B2-89C3-84DB35CD6320
F074260C-6F4D-4AE2-BAE8-01E480D9D489
4CF90D31-9CCB-426E-9388-CCEF54190508
5748B061-4F17-45A8-A11D-68A4B6A3CC3F
43972987-D429-4AD5-A696-B09DE077E3C2
9251D41E-8AC2-4DCE-9766-E622D0D13947
F3BC297A-2629-4FF2-9CEF-AA57668AF6FA
EB4AE10A-8D19-448A-B7C7-2531DD9CBD82
AD9FC013-2F9E-4A05-9D0D-FDA6C1CF01DE
F5339650-0E56-43B1-8CD3-958E1858F9F9
6FC35DBD-DC2F-4C48-A8D7-4BC7EBD87DF2
924B325D-1F0E-469A-B1B4-63AD1A71E6E9
3EAA7365-FB43-4B1E-82F1-850C3289D936
DBF9C7CF-6806-4FDB-9027-B4B8893234AA
16AA8928-4DA4-4B02-8E12-DFB5D592BD78
6B55EFEE-A171-4DFB-99A7-A817A8EE6867
6942629D-51AF-46F0-84D7-950D220C03F4
DA7AE580-A1A6-4169-B228-087B5DC362EE
C536F4EC-B5D2-461F-8D40-1A4A943306CD
F9DD890C-185A-4827-AB08-5A4087539934
6451C3BA-94FD-4D1A-95C7-E09F5BA5A209
63231355-1071-4A18-A30B-F7065B28B052
328FC7F0-596A-4D41-A130-5E32AFACB08E
EFF7514D-AEC5-4F38-A7F9-A0B5C009D581
296CF217-43FB-4A6B-ABBB-066E1C4E1CEE
8057C811-08DF-47EE-A4B2-C5451B45BA1F
F5BB2DDF-8ED3-4EA7-B5D4-D1E619484192
96AA4A14-BD5D-4765-A747-22381E5FB6F3
5EC8958D-43D8-45AB-A620-895CA0715DB1
81F49D75-6F28-4295-B4A8-608AF4D0A424
FEEE9C75-79CE-48AF-8F94-3F81E90A6A1F
2EC9B325-D7CF-4B5B-9F95-551F9DBAA973
169CC07A-AC49-4361-B4EE-FFB2E58A8CDA
E3CCCD6F-2389-4553-83F9-5395CA7396EC
5F33D3D0-73FB-43CD-B78A-DC6C5933C34E
24330D27-13E0-49E3-AE7E-10C2F83468C8
B9B615F7-8D5F-446C-9393-74DA4D3D50D2
41230FE5-37D6-4F8D-99FD-5817823A29DC
9B56FFC5-49A6-469F-8D86-B5D6FBE5590A
489B81A8-16E2-4FC0-AB87-1910003AA84A
B994C154-EE1C-4798-854A-B092B5614E44
1BF65012-DF2D-4721-9AE3-9B12A601A847
8D724601-231E-4C32-B092-7A9EC2A6C6A4
EB4028D0-2EE7-4A24-A069-CF1DC52C4296
D93A73B4-428D-4507-8DBA-88BD30A4C247
2DAC4446-23A6-4E08-80B3-F9B3BDFF787F
598DBFBB-8268-4C19-BDEE-1ED1AB2F0C46
D6F9AC44-6B9C-4854-BC6B-3D1830452273
CD80BED8-CEEE-4929-8FA1-D5DADCF95DCE
605C8950-2ECA-4507-8D71-B6FD613C2ED4
0851CF06-76DA-43FE-A1BC-B7E68E7DA867
307EF9A6-BEB0-4E60-A5B6-0BC3AA3A0303
F6A74013-0580-49B1-ADF7-A072FB9BB907
8255506A-2B63-4DD9-AB0B-7715881436DB
7267115A-76BA-45AC-84B7-4894CCB1E453
73A24182-A8E0-4C5F-A32D-F065ED656D76
9893800B-8A74-406B-8DE9-F1AE8AF283C4
561BD5B6-B7F3-45AA-AB98-A4A6DEB3E842
8676197E-D076-40AE-B3B0-5C2F6BDCD7EF
A8AFCEBD-7E0F-425C-AD6B-7D6EC90FF6D3
A3B73AF4-C9D4-4639-B2E5-A52241D54ED6
A10BA529-9FCF-460C-8722-11A90B17407B
E9F85FCE-2225-4609-B00A-ED77986AD7B8
C5579B5A-3E96-4A36-B3FC-A338C54C93A4
FC00854B-86F5-4D85-B076-4250B77EE6C8
75919511-4AC2-4418-81B4-0E54770E1228
441CF778-87FE-4019-92F0-D25E86253A6A
BC128A8C-61C4-4512-9818-48B3EACB834F
3461376C-7446-492C-AED7-23FB1624BA53
B4CA2E3B-70FB-4171-802C-1113653847DE
698F8A5A-03E8-4805-89F8-93C6D4946CBF
993FC5CD-012F-419D-8D84-BE6EBC9217C1
0D046121-6862-4278-8275-0AC320B567BA
A7F56B10-0D31-4351-B393-0616F3126D66
9F4908AA-5F6F-4CFF-B6B9-21186B555076
B209F751-C6AE-49A3-B13E-B389250FEE7D
B4B64A52-88A1-4E83-B610-2CC25317ED61
9D085625-5971-40FC-8924-AD2B46D070DB
167312A5-FFB4-4FE2-AAAE-121369E8CA1D
14433B4E-F8CC-490B-A632-154AB9BC39C0
2E2C9947-D76F-472B-ABFA-0FCAAAF99ABC
4EA21BD2-D6C6-40F4-9FC9-0C35D20BD093
618E6499-B0E3-453A-9C9A-AB02E6A8E1F8
92A26661-2A73-4E58-8659-910BC3301BBD
EEF47BB4-F0F8-4474-9AC7-A4577D02C499
957B67C9-CA85-4CAB-81E7-831524BAAE6F
0D05F872-8F42-454D-AEDD-B1070A00F288
38989952-295C-435B-8773-E3D032E7BAE6
61833890-CA1C-43DC-B0C6-2218611C70BD
33A5F395-D96D-4C9B-ABEC-8E88EDB309FB
1BC62ACD-595E-452E-9F3C-2CB437D3F1B2
A777B5F3-1090-4432-8060-9C9181CFB791
C9278476-EF2A-4FA8-B775-66CEF5E79E8D
9DA09BF1-9155-4071-B303-905FA9B06387
218D849E-CFF6-46F2-AC41-BB7B853AF629
04C8AD2D-A516-475E-9AC8-C68131B4347E
CD3693FD-479D-4214-A035-BB54C177AE88
BAE79B2F-4C17-4E2F-BC06-0EEF21BAF7F3
45B81512-6322-4F14-8334-BFEFF09F0F1A
23776271-39BB-4F30-A438-5C706BB7D137
5C93D7F6-10FA-49AF-99D0-4E5201EDAF77
6BAF3611-0362-40B7-A4C0-113B2B853A00
BBD8CED5-C507-4C76-9842-76BBD9249043
CBD7A17F-F2C0-4D2E-AC76-BBD098C90E2A
2179DCF3-2E0D-437A-9B4D-44260E09A69E
AE113DB3-FD01-423E-A14C-396256E53232
BEA8A028-A6F4-4104-AE0D-5F68A4DF04E4
0F7AFBBE-FF74-4682-8002-E32D22697F24
BEBF0B68-A03C-4635-A026-09583178E6DF
0C352089-0420-471A-85DB-7105B44EFB30
8EEFC5F1-4404-4739-B7A4-CA694BD8DD73
84819379-FA26-49D0-8818-263446547873
4A6948A8-706F-4E93-A64B-BFD21A87441E
8D160674-6D9A-4D38-AE19-0CA1822B5B93
CCEF8133-879B-4935-9F78-779FBCA72D0B
67BB480F-2039-422C-9380-4A13A57738BD
18C5F791-2165-4ACC-83F3-3FE473659D0F
CD4701E6-18A3-4EEC-B8CB-658680F62DCC
6EC677B8-3768-4580-B65A-CBE02D432D02
F472B040-61C5-4916-9A63-A18949ACB138
631E3CC5-8FF0-4C54-A76C-14B7EB14C965
C24EF142-4BB1-46FC-A28B-FE4493CDE279
6DED04A8-1F15-4C3B-8DCF-1040210D2498
BC32CFB8-40D8-429F-85CC-C905B513DEE3
C1537624-11EC-4230-9147-A0EA5169F711
F9D9A1C5-C8AE-48BE-84A5-ED6A966D658F
ECF27AA7-DAC9-43AD-BDE1-202E6830A058
ECB1EFFE-7BB4-4CC9-B881-6A420C1CB667
D15F8B6E-A14B-41DF-8623-F8AFA388E50B
3AE7FAFA-99A2-4884-9595-FD912EDCE648
E38A4474-1FE7-421D-AD65-54B98266CC2E
89B67D8B-9611-4E61-BAD1-26783D701ED2
EEDD4CB0-6A4F-4E05-BEF2-F56B7C176DA1
9BD7FC58-25C4-4C30-A979-5D05B65B1254
A8DFEE86-4D42-48C7-B5AB-610A511E9CE5
558FC28B-6031-474F-A724-C312275BE9E7
A7948223-50C6-4C84-96F0-D61B85FE1371
AFECE2A2-F3B1-4760-97DC-738DBF904A34
F6D7890F-C8A2-4CE1-B962-D9B7342FD1E3
B2F16FD6-100F-4A58-BD6D-3D2E1ADD11C8
7501FF49-7156-4393-9E88-D9EA1AA83D0E
A1C74F5D-3224-43B7-BAF3-57DD203A4E34
EB1F7CCA-1341-4AD0-BF9C-A9843B12A439
5DDB9035-456C-4AA8-9212-5FA526A5AE9E
CC9E86D9-FD97-4519-A93B-5CB63A3D0541
0471F8C6-3090-425A-A506-AC0797EBCF08
545601D7-F0C8-4D94-ADD6-CC2D10A7B1FF
4F2CCBB0-5F51-4BE0-80A8-696C5F48CD7F
7D5C422D-4C16-41D3-9D12-E4D24BC67CB4
6D11F136-2DBF-4A9F-B9AC-F6509C4CAA07
303C07BB-527D-4EFE-B147-D0249DC27733
8FF72C6E-9463-49CC-853E-F0DFDB94C4CB
A70531CB-0B7B-4327-A7A9-E4819DAEC6C0
0E99D4C9-8DD9-431A-B1EE-03B64927A872
E9B49AEA-E0B0-44E0-98E4-31468263B3A7
5611F623-5A29-481E-BC45-1E3B9558FD18
954B0C6C-65AE-4E54-B765-CD6CBCED5F83
D07FBE8C-AC36-4DAC-856F-4EE6B6C8D957
5D7D3DAD-2416-4A42-A9E8-393A0C3E5241
94FE451A-5F4D-4649-A532-9FDFF80FC956
379924E0-39E5-4BAC-BDE6-B59746349282
F503B800-185A-40AB-AD77-8DCE55603396
0D30BD37-2DBE-49A4-A3D6-7E0493575AFE
B24B6FF6-BE6C-4B60-AC01-1ACC7E761E63
5D755E41-C9DE-49C7-8BD7-08BEAB9B92CE
A0345B5B-60F0-45BA-B38D-8D8249987D71
C2D5A067-4FA6-4A2A-BDB2-908980606AB6
C25277C6-DADF-4CCA-B47A-C73A9B3EEB38
7125DD8B-D588-40E0-ACF6-99DE64A85407
52D6ECB1-7978-4E03-B41A-2D216924F905
3B411EF0-86CF-4799-A844-C6DCB2A6A592
C7FAC64E-2B4D-4F70-9305-EAC2359AE3CE
B5AE4337-356B-4BE5-B1A8-F9B605207367
E4F0479A-249B-41D4-BD38-62AE61198E6D
EA91CC77-E4A9-4409-AA54-B107244DC0C1
ADBD19FE-1A06-4D8D-927E-3C6CA001FFB0
C40E4B1C-200B-48B3-A849-84F8A46B0748
6A189007-E48F-4F32-8CD3-91F0866EC775
C566FAE9-EDD3-44FD-B0A3-34B649840043
F3BDF21A-566E-47E6-99B2-04EFD9542E67
792BEACF-BBC6-410E-9E24-680A44955219
DC0CEE7E-524D-4826-BE21-B07EADEBD679
264DFD1D-C28E-4444-9AF9-110602B766EC
B9F79B4D-47EB-4E8E-90EC-B7D868B09A5B
A4CBE2F1-AB54-4E4F-B286-BA75404E23BC
1D999B07-3F30-4627-BF29-1E74F86F14F4
2921F9B0-BC55-46E6-AECE-8C3A486AFC5E
5992DF5B-201A-4A91-9ACE-952840279999
B7DA6EAD-011E-4C10-ADDF-604B6FD4B593
B1DA6B6F-E52C-4BCE-A735-8C0D368DC970
C1E6D2F8-882F-4AA8-93B5-481901A9ACE3
2A529F90-8E00-400E-893C-8E4665F3582A
31A8BFAA-63D7-4263-AF7A-E361820B86F3
865482C0-293C-4900-A923-55E629949891
2A31D31C-7E6D-4F0B-9333-4CEF7765013B
2546B0F7-8C3F-4F1D-B3C9-1ABEE9978A87
F68B7628-7F93-4093-A7B7-8626CA2B8F76
D49D684A-1671-4502-8671-A608B4A51FAB
07F09AE4-E270-4FFD-9741-DBD36B080E0D
AED2AA37-F903-4F4D-93F7-BA8E982E531B
2FB74B82-AF0D-4353-AE29-C7C3307834A0
A9815C85-29E5-4B85-A7C4-8A1AD4DB8409
D21C81F9-6926-4B72-BCEF-39DF7FA9B0F8
493C1E4F-93A4-4C30-86C3-B0EA25B3B31B
407F4901-DA8F-472D-84E3-732C16394B36
93F64DAE-FE6C-4B56-8A2F-74C82033D314
876CCED8-20AF-4A50-B3B8-ECA5E6D01E35
76969273-8106-4F4C-BA33-D916EB2DBFAF
C70D2C47-046F-4E2C-A620-610337D97FB6
FF48E4F4-79F2-4995-A8EF-FF8380AC577D
DE73A50C-C9C7-4D2E-8FEB-D11B9B27CDED
31E6804C-626A-4B8A-89E9-1F0B4033A218
B8164B21-8DCB-42EC-8D9B-489BF9B64F37
5203AA84-4683-4A24-94D3-13EE66FB30D4
11B13894-FE5A-4C43-8865-DAD1B275332A
0E7B274E-EB3E-48E1-8F58-E4BCA0AF3457
3A04FB71-56CA-4D30-9447-79790F37E300
F456EDC6-2BA9-4A4D-B87F-FA87D521596D
82DBB964-0749-42F6-ACDF-3D69138638CF
5CF6BBE9-D5E1-4134-9246-5FA958AA75A0
008CC9B5-CF5C-4877-B73A-7A6CB6AAAF46
28328332-638F-4BF2-AB47-167DEFAA71F8
7B2A2707-D32B-435D-95E7-424E0B917E52
0B6F5A3A-17DD-449E-92AC-AE5D59E0541D
37EC65BE-286F-4778-9CAE-B770BBD565F5
BCC3CEDE-39BB-4FC5-82B2-070C86C29578
309355D5-25DB-4C97-8C6C-B48ABE765E16
E72549D8-3CAF-468C-84E4-779DCD290381
B04EF9B2-B68F-401A-9E5B-B99DF18AC0DA
197AC81C-67AB-449C-9790-7D089C131DE0
66163D38-E10F-4803-9F07-64511325E45B
04A5F378-2A0E-4832-AF22-7FCAC2B703FF
E4CDA2E2-525C-4C78-B765-18A079E82C25
0BA02555-1DBE-4E74-9A8B-32853B400918
4F2903D6-8896-4885-B3C3-BFC170B50E65
5ACC4BA5-FD0E-49CC-A465-4CC2E37BB3BB
E58A203E-892C-4136-AA50-6BE9AB52AFAC
6750E020-A19E-4A9D-A26F-B79661F0A03F
015C770C-1125-4217-8900-948EEA19C26F
D3C9F0FC-6D90-4176-B6D9-AAAC31937837
8DBAA02C-DAA9-43F7-A7BF-F321D3278590
3C30E4E2-4F9E-45C3-B058-9F07E0615F0B
0F83F949-166E-42BC-A84F-3BE728B3E72A
A0B5E248-40BC-4452-B402-C1701D7C61FA
6C329640-AF83-459F-B348-CF969FFC99AD
4C5ADC7E-3D84-4DC2-B162-A30D06C2944C
95E8A427-8532-4896-AAEF-0B5BB62C0379
5A957095-F941-427E-AB4E-FF356DF74456
C9979607-6360-4C70-8D76-49D72446AE3C
5F04637A-94CE-4E25-9384-7416E6320B82
9CA413B4-ED4D-446C-9FFF-69E88FDF55E9
7E5C1ACE-E83F-4434-9828-C46961470836
985500D6-C01E-47E5-937C-F7D64B6534D1
70EE6FDB-C003-487E-AA1C-BE2AD88A60F7
5181FB15-7381-44EF-BD3A-5713A59AC706
83774425-603E-4AEE-856E-201C1D159924
7D5A3A90-DE8C-4A2D-9C6C-3891E4732176
7347F624-CF5D-4808-BEB7-F3A8B97E05AF
BA23CE13-C36A-4C50-8F9E-BAAC3A76D45E
79E1AC0D-5F36-4BE8-817C-874E8E482B07
9712DDE0-63FF-4F1A-8E74-7EABDFBEB7ED
CFC30EE2-0C52-45FD-8D84-47E6CD35A4B3
F6414A7A-1E58-4513-8A37-E4FED66EA7D7
2E346A28-6970-4781-89ED-8CFEF39B4E8A
521B09A0-A31A-4B8A-9103-61B1D8E04473
AC6C41E4-AB2D-42EF-8C64-2AFBDA2DFF0C
8BFE7892-F27B-415F-AAC7-399A90831699
1284EE0A-2F09-4906-80FE-4D6842F9647B
8CC5372E-A0B0-4B0F-A1F3-75AF9C819ACF
A4FE161A-9464-44B1-8B2C-183E21A532B8
30180DAA-71FB-4306-8BCD-DDF340CAE292
CBA86923-A929-4400-9D97-67D5E2257FC9
30C7C276-50AA-4130-9AA6-9AAE7E5997A2
E8ADE2EE-BC31-494A-9D10-A81E517383B2
92ECEB6A-6CCB-4151-B977-4ACDAC1EBBAB
A27BDD6F-0718-47A5-B9D8-C5F6E1C4BBB8
D2473365-57DB-4D4F-A9BB-30175703EEB9
21F1D323-8FFC-42FC-91B6-5798EF31FF63
DA9BA7F8-E6C8-4D69-83F9-3BBC7D368A6A
3168D920-2AD2-4523-BE82-3A1A7707AFA0
DA45C108-20B0-455E-946E-DEEB73B11A8D
172C369A-0519-4F7B-AFAF-921F270DFB0F
BE8F7EB0-7BFB-4F19-B887-365715BC2150
695AB280-B3B4-4FAD-A955-31EC5506D72F
47B1731E-FD3E-4A6D-AACF-75EFD8A46694
DFCCD5A9-5644-4789-A51D-218DBD7F702D
3052943E-313D-41F7-AB5E-DC406C1381B5
207ECDEE-C6EB-41FE-95A0-C211C93D967E
2614A84D-A77B-4225-A964-77ABE0BA9E8C
A3E016EC-01A2-486D-8C3C-7BC3192F31C9
10466CC2-F2E0-47FD-A147-E825AD8E276A
72ED6FFB-E58F-4A0A-9BB3-7DEFD9D6DA87
6E9D798C-1D16-4422-B740-2C02F417131F
9EDD5857-3BFA-41FA-9F1A-67B3BD148637
CC22A0C5-0AA7-404B-95D7-2EED85DDE178
20B96BFA-5D7D-4427-9D3F-49152F14D853
AA34DBFA-D328-4904-85BD-F4760A1C2F17
D07922D1-9C04-45A3-B99D-E317FD7CAC19
A9028AFF-E909-4C8C-8A49-A77B2510B612
12DB32FF-36B6-4D01-B282-DD4D17534E66
089A312C-DD30-470F-9CD1-9D604E5DC223
8116E3DD-1429-4DCA-A9C1-EDE8D5715AD7
4BD6C295-66FD-460E-B864-CD4CB3E954A0
16340773-8BE2-4D34-B4E7-9C59D74128D6
1CB471F6-097B-44C3-BF40-C50099834EF8
6BE27EA0-588A-4533-99EE-C3E1D1DA3FFB
3EB82FD9-FAE0-49CD-80A3-809BD4EEF8A2
653CD649-FA3A-462D-9057-07F5E2FD7066
0EB08AC9-C683-4020-8F91-67A426572E53
5AAAFF83-7C5C-4DAD-B136-544FA8E3E2F6
E73D6887-8784-4093-A50E-AEE6DE9A5254
8862072F-CB3A-4954-93E0-4D3B872E53BD
5A300D81-1211-4748-B807-6E0600CB55B8
AE99D9D2-344D-42A0-8D36-3CBD601B8B00
FE03306F-E473-4811-AF7B-E9C8695D9F15
17D0B600-5150-433C-894F-6EDB498EBAC8
B96D73D9-7F59-4BE6-AED7-109BB39D1316
78EC2C45-27CD-4720-8AA8-3CBECEA7380B
19D1519B-34C1-416A-94F4-BB4ECCFC8FB7
DD9E5A97-DAD7-4AAC-A739-B6F88C135829
C8DB6483-0B30-4006-8BC4-9FB694FFB483
151514FC-E3E3-4A42-8EF2-3E8EF49A7BE6
C3DC9EA6-38E5-4137-B618-50D58C21E969
5151CE5A-177F-473E-ABB3-6B87F6A9C990
7D10181A-D4C6-4396-A82A-A3D0028CDBBE
8E9211BD-D7F2-42C5-8633-E0BC37D665BE
38D2CBA9-AD33-44DE-8A66-87BA0CBE3E61
42CDFF3C-281D-4EB4-8612-E461AAA54059
D9FAAE96-7A8C-4E73-B2BF-9C35F62995D4
0869F917-C51D-4355-93D7-98F6D7B5DD92
85303162-4E9D-44BA-BFE9-B6C493152CBD
7F394DEC-787D-45B7-8C6C-80782AC27470
3EF12267-C1DB-4D0D-90D6-4C52D37820F0
4EDC9001-C448-4027-B3B7-71E7D6855C1A
C359E86E-791C-475B-8AE2-3A31B079214F
E71D9BF3-D365-4BE6-ABAB-C1074C974EBD
90EAE391-8CCF-4630-AB03-2E1F34513742
E979246B-7322-4F7E-B148-6FB38AF91393
97C5E758-2980-43FD-BB94-BDCD1FB22507
BB562402-9DCE-4949-8AC8-4D79122127F5
0CBB8466-65BB-4A61-83B7-82077897DF39
3FE26D01-D240-4A28-8433-5D51591CD0EA
C2B84AEF-8CFD-4525-9B34-001CAFC19E0A
72602BB3-39B3-4B19-A19F-5679806631A1
5687C7C3-058C-49F2-8347-1384F9CB8EE0
B8F155A5-4BD8-43A6-810A-FE11F07D289E
4969E6C8-FBF6-49B3-AFD8-D9138BCA7F62
B100D15F-A056-4F80-B8FC-7552EFC23FB4
E73E9E32-91D9-43A6-9AD8-6CD08B3305B2
BEF4AD90-31D2-41BB-A06E-4AE2284F57F6
42513454-2B23-4E5F-8FDD-B0F2BDE6D4E4
F83DAA06-10A2-4EF9-B199-B572298B84B0
E3460B19-A999-48C6-B32E-2F07A9774D32
9FFE82C8-EFC2-4EA6-B957-46D27480D7D7
E4444255-C307-40BD-9C56-D9B262A9D13E
E1B81FF6-0251-4AF1-98B2-25134692BE2A
695D4FC6-C66F-465F-946E-703662125B6C
CDCD90A1-6823-4559-A446-0B55540A5E3D
3E5C7C3F-7D77-4739-BB59-245C4B14F289
B30D3D6B-2D8B-4269-849F-889650A5A830
31F24765-76E3-4CCC-8D4C-A30F3BDF9F93
AD417D22-74ED-471D-AA75-4A1305A87DC1
3396C4FF-8A19-4311-BA4E-9083212BADD5
E49F2A80-A0B7-46F8-BBF8-CE1D861EF5D9
E9C2111A-BF6E-4F6F-9060-2FE76D460A00
844676C0-3AE0-408D-B27B-03EF5A59002E
D66F845F-1599-4BD9-8F9B-BA2B879A35B2
8A99B48D-E8C6-4908-B267-DF45E24D8426
32C7A7CF-A954-4862-BF68-3300F8C902EA
64E3BE77-AAE7-4E4A-8861-E6E2224F2FF4
EB30CF46-AA01-4F37-80EA-A30D0B135337
119AD5FB-92CD-4C39-9B90-8C7FD7AC0730
E7B27022-4E0F-413C-AD65-9D8ED2F0B480