542EB9BA-9C61-44A3-81AF-00439BF9ED02
21F85367-3AAD-4870-A2F3-00657F308A9A
230C055A-1E05-4F29-882A-007CE6168C1A
6A02978A-9405-4C87-A23B-008AFEEB43D9
99E5D42F-F510-4E75-89EC-00C28C53A3C2
E3E6B803-2367-4C75-B498-0108D1AD4E07
F87C17E9-FF07-4F3B-AE1F-01606F90F0DF
36DE057E-EA13-4C3F-A6FA-01E16DFF769D
A7AA9EF6-D84B-4A6E-89B7-02473249553E
75E32C6C-A077-4D2A-83F8-028B483BF0AF
F88B9287-D196-42F4-8895-02D134457936
36582761-AF03-42B5-8F48-033EDA5C9042
FBAB6E1A-2E2D-4416-971C-0360A497044A
0D68C9B1-98F8-49EC-B01A-03CD87169110
9F564945-3730-48BE-863B-03FE58A197A5
F2197DF2-8097-4D17-B89C-044269B3CCE6
E9CC285B-B796-4940-B6A1-047CC4C99812
46E2418A-915E-4BD9-8399-047D98D0419A
5258A292-0F99-4AB4-A1E1-04866D25924A
CDE67DE0-F000-4DD7-8DB2-04969F82DD48
E0F1CE5E-A3BE-4161-8CBB-04C019AC57D8
4D0880C7-3D51-47DD-B8AD-04E8FAB3AF01
7B0F81F7-3CCD-42CE-ABA6-04E9ED384560
095A95D4-C3E8-4AE2-9F8F-05681CF61B42
C2F3572B-177F-4442-B068-0596F05BBBB4
B98D1D57-4C81-445D-AC0D-05A6B0D64132
097D473F-542E-428A-833B-066138D1D4CD
8431C01E-D4AF-478E-B17D-06707B91A058
DD138550-541D-43AA-A87D-06778F6E7444
EA1A2C13-EC6C-4D76-AB82-07021BA6BFB2
C6736CCA-42B2-4EB8-822F-077F62037F90
0A504BC3-5A6A-40A3-8279-07B71A557F88
B4F122E6-672D-40F0-A955-081DFC48CDB2
DA3ECFE3-F03F-48B9-851D-088FBC37C0B7
E2B759D5-B11D-4055-AD1C-08C22827B075
6E42F4BD-FE67-446D-92B9-08F50917015F
A7D9734B-D8F7-4F0B-8F4F-093C85F54F6B
022B09EC-23CD-4F67-86CE-09592710D0FC
A3FE7F95-DE75-4E7A-8F73-09E18FDF0FD9
A782F9E9-8EA8-4DA0-AFD7-09EAA220BAB6
B3627016-E451-4764-849D-0C3944BF3635
93264985-512C-4EB6-A0B4-0C5520677BA0
8C4369F3-E66D-447E-8CDD-0CE8B3679AC2
4E4AAEA2-2E7E-43EC-8FF0-0D084B753D06
977A69BB-F0A3-4354-B8C5-0DE12964EC5D
433D71D2-08C3-420A-8321-0E713AD75601
7D51EA36-341C-404B-85D4-0F14B82E55FB
8910F525-52D5-4BF3-8D15-0F1DE1E57CF3
EDCBD288-78F4-43E9-B8AF-0F5F68E952DC
F16D8BBF-0754-4725-9142-0FF51F9E0AB9
D87BB705-4B70-4605-9D1D-100FEB528F1E
D5C6207D-E744-4D36-8A32-1079E67F82F6
CC5535B0-109F-45CF-875B-10C983A30662
9D759D88-C153-4D5E-969A-10F567AA0DE5
60678DC0-9CFB-43DE-BFDC-111856E8ED31
F04AC57E-9B0B-44EA-A4CA-11EE26FFF18E
96BE1571-48FD-4CFB-9D52-11FEFDB6083F
800C8EAB-3443-4138-9C93-1221FF79006E
E4D30F90-82CC-4105-9F6A-124AF8BF9C58
23C7B86B-C3E0-4F7D-94BC-12C845FDBEF7
998D18F9-4563-466E-A9AC-12D44D28201C
FF0E4259-2B06-4B90-AE75-12DF78E95C9A
AA23EE0D-0D7B-441F-9F33-12EFB9BFA868
D937D1F4-4947-40B5-B831-137EEBB1568E
A3ABBB99-4EA1-4B88-9D2E-13906AC31204
2E5492BF-F85E-43A1-92A6-13C266D7E7E4
72CB9271-B0EB-4672-B3B4-140C960AF48C
18A3E24C-6E0C-4F66-A4F3-140D9733AEB1
EE6750D9-E784-4FBE-BABC-14737547286B
E6EB2F89-1579-485C-9AF4-1498BD48748A
45E9EB1B-AB14-4CA9-A45A-14F340BEA461
DB7EA23B-C0A2-463B-A2E5-15A8C5C69FA8
692DAF0E-0F8B-4214-BB97-15DC8805BA2F
0C8BF6DA-743C-4DA2-941B-15FCF57DB78E
1FC03000-01F7-4E0B-BBA7-160FCA171848
8D58C0C2-850D-49FB-860E-1671D93E28F6
AC268572-840D-4739-922E-17000433E595
73C170E5-16C9-431F-9294-171483160F69
8299875B-0944-4FBE-A8F5-1783E4D34E6E
7A63052E-DC72-4A38-9F9C-17D19A8A9566
BA99B268-6144-4F4D-BB74-17E5CD6F3C5B
083DA809-6E4A-49B2-8CB9-186654A43F51
497C84AA-C074-4DF0-BA52-188D69E6F0B9
908B051F-6650-4AEB-84AF-18D988C84359
6F46FEE1-BA33-457B-89B0-1919912F9FC6
70E37306-58DA-466A-8977-193C67D53190
C66C6CB7-307D-4BA4-A72B-1970919EE9F6
2B623562-0A78-41FB-9C1F-19A76DC1D0E8
A5FA2187-B2B4-4B0B-A930-19EF41B5E45B
3AC20F77-7BCC-4739-95E4-1A39D6E6C26E
78D0FC15-4F7B-479E-BF7F-1A4C2DD90049
A5A87A49-2FA7-4FBB-8D16-1A6B9CBB6425
2EF7FE00-A36A-42ED-BBEA-1A711EC7CBE0
5C10AA33-54BF-4BD1-A52D-1AE8F2ACD106
F4E95A98-B333-419D-BA10-1B0B89559FD9
6B71993A-7C69-42EB-83C6-1B0FC2155444
853CAF22-F57E-47B3-B461-1B427166EE53
530AE160-FCA7-4957-B9FA-1BD1F2D7A82E
F105C225-CDAE-4D04-990A-1BEF1D4F36F6
64898F88-1EC5-481F-9C4C-1BFFD37A96BF
E254555D-FB04-48C5-8398-1C1D43FC64E0
46952C3F-E5AA-4DA5-88D9-1C58B89AC556
6C2C1F24-5CE4-414E-B230-1C654C211BF6
C3956269-04EF-4E0F-AB45-1C76E30D0905
8E8CA897-3E14-421F-BD81-1CF780C6A446
5E900D7D-D74F-422D-8DAF-1D5077636FB0
7EA8B85B-4B0E-4EA4-A651-1D7DF13300D9
E53E552A-F1E6-48FA-924D-1DA247FB0837
7BBE4F09-F9D2-41F4-A654-1DB35900D0FA
CAAF14CD-C52D-46A8-830F-1DCA05D7AE3D
9FA399D8-9D64-4959-993F-1DEAEBCF5350
281E5A98-B266-4E94-83A8-1E14C0194F1E
6B03A86D-EA9A-4B30-99D2-1EB92DE43BD9
65457F2D-A9A8-482C-9AA9-1EEFE8FA9AE1
788D1BF0-A92D-4198-9792-1F47A20A3941
0EAC7BCC-0355-45EF-A1FC-1F79DB2FB18A
BE5FF437-0A85-4057-963B-1FF5C02CAB20
E4661D5E-4523-4AB2-9EDB-204797B73D35
D2E59C3A-41A5-40FD-B05C-20D0FD99B2BD
192357DB-4077-4A02-B0C9-212A3B8D5258
350E3377-18A9-4742-83EC-21339FFBA1DD
507D8C9D-2D18-4378-A6B3-21593228D613
52231701-1222-4233-90F0-21D54C6984F7
4BE79042-FC19-4379-8B0B-22245BB8025F
64AF238A-18A8-4185-8ACD-22327C61429B
CC250449-E2C1-41C4-93C0-22655749D904
AF942B2E-195C-4497-934A-2327BDA445F3
F3F0D557-0A70-484C-BBD0-232EE0AE5B6C
E8279B7F-F57A-4779-825D-24168405DB28
B3122AF2-76BA-4B1E-8524-243EA2C313F0
8D4DDA3B-D61D-4855-A10A-248ECCC5BD93
12D99200-0D38-497E-81F5-24A09C78482F
B1B2CC8D-6AE1-476E-9A54-24ACE3CAC04C
D8886426-2B38-4999-AECD-24B84FB51D74
F5635BF5-CA64-486B-8F7C-24BB32B4655D
3581ED41-8A55-4217-B739-24C953A1A3BD
86E4E9D0-3FD1-48CB-B2F8-24CAEAFD807D
7DA3D253-E92F-4619-8CC8-251CD42D4E4F
CC7B6750-1445-472B-A0F5-2612F0142C81
536FCBF2-A16F-4B5E-82E0-2644DE910F44
37688060-D403-4CDF-B6F8-266C88F437CA
C0AE6045-01A3-4EAE-9675-26DAA459585B
6260F35A-B9F8-4343-9883-26EC6E05F676
A9E4441F-FA17-4BFD-9A0A-26EF584A0495
9C929682-E310-454F-AE93-2722A57310FB
EF374816-D814-430F-B132-27502F4FDE58
C8156D52-9390-4E46-B7C6-276A532FC9E8
FC04E051-39D1-4681-8214-2775BEC3A7C0
B5E93828-7E60-4E5F-B9A3-27C40F89C066
3D1FFABA-6233-4F78-ACAB-27D08A174F35
65DC55D0-D154-479B-A02C-28BC91D50B82
EE86E157-1D71-4AFE-ACB5-294ADAB175FA
C7227240-A7DB-4837-828D-295EE0464CA1
FBC507FD-3B05-4B26-9AC3-2A34AF83DD8D
0C9521F7-F0DE-4AA0-94B7-2A589E31905D
D0DDEAE7-8351-48A5-9009-2A900902BB83
38EEB074-58CF-4D9E-B8CE-2A95A47B6ED7
058972CE-5F03-4858-83F5-2B3A64C16DEB
BD6138CE-59A0-4DD9-8356-2B5054D9C6C1
A29C4515-DC14-4F84-BB26-2BA03CB6574E
21CEE427-3AB9-44DF-BAB4-2BACF6894DFA
0B47AD6B-A6B9-451C-B78D-2C47792DDF7A
C1F4E80C-7757-469A-B449-2C48FB78AF75
C7E38406-DD32-4480-97BF-2CFD53225E5B
182EAB24-0E26-4D90-A214-2D18C39EC036
6CE0BE89-456F-449D-ACBE-2D3842AC3D82
FBDB9797-CF59-45C5-835B-2D85AA002EFD
620E22DE-FDA0-4139-920E-2E3BB665EC55
F48D70B2-B710-4207-A351-2EEE07DDD6FC
834DCAA2-7414-4F78-9B51-2F846EBA4D17
AF85151C-F73E-4DB5-AAFB-3067C82A9546
485165B0-FF42-419F-9FD4-31289346788E
BE227C66-0C54-4127-8914-3135150BC885
83797601-6B3B-4192-8A52-3150EBAC226C
C564F91B-8BF3-43AF-80C1-315839F301AB
9F25DE44-C8D9-49BA-8A42-3181D7612175
9D4E3079-287B-4113-A82F-31F3299A6FE9
C2E40084-09E1-4AC8-85D3-3201E937C090
AB1F7413-0059-4809-B97D-325F4B927792
149805A9-C456-401C-A22C-3272A7CEA035
BC444A20-FB2D-41F0-895F-32F3A198A1F3
6071733F-53BB-4D06-943A-33233F22C80C
02DC45B2-2E3A-46A4-BA3D-332DEE388BC6
314EBAF6-6DD7-45CB-A281-33495F258FB8
11ED682F-1EC5-4130-AA3F-338F8140C90E
8A6D57FC-CA5F-4585-8A90-33C622828A94
09F3F2D9-3073-4A14-92A3-33EAB0335558
47C1B577-E433-4284-84C8-34013156092C
89FE9780-6A18-4875-B25A-3417A6D99510
691B9CD8-6E66-4B23-BB9A-345F9073C235
D14927D3-7ECE-45EB-94F1-347F2B4D5F69
DCE5241B-387C-4032-A041-351F51A0D22C
F5896286-AD37-41BC-8AE2-352AB509677B
0F876672-92E9-4C01-B3F8-353A0B8EC684
705A83E8-C364-4EE9-8D3B-35B960BA99BB
85BC5534-3B2A-4847-904A-3602D81F3D34
98F42AA2-9E8F-4F38-B294-36540DAEAA34
EBCF0D9B-B251-488E-BA54-3657292C6031
4AEDA061-EA71-487D-9630-36751E61741E
21C700D7-66DE-45F1-9F42-3677BFEE222F
DB86FC76-7123-4985-A073-367ACA153FFE
DB9E8803-8DDF-401D-86BF-36A475D8475C
EB763B95-CF65-446A-AF09-36B30777F847
EC01C90F-3B5D-4E02-93A7-37330EDD054C
F542C0A4-E80B-4926-901E-37986A6E1520
84C83ECB-9F67-49B8-8419-37C2759BDE00
83FE52B0-A241-4BC4-8262-37C81EE92A56
82688110-2291-4FFE-B4AA-37CFF02718A4
93FB8A3F-3AEB-401A-8E0F-380CAEFB1740
6065B816-02E0-46CD-8433-384CF704B882
62E5AC48-59FE-40C3-8022-385B47CDD1BB
87C548E8-AB12-425F-884F-393BF3010228
F8D9B267-1275-4C53-9C87-398882A876B8
91440A72-0F8D-4216-BCDB-39914FA50AA1
60A15EFA-3306-4427-BE31-39A22C0809DD
A65A2D2B-B699-4781-8363-39A2435E5570
1D620230-589B-4B9C-A6A4-39ABC92F441C
04BD8E79-4638-4109-9122-39D669B463AB
0E63BD1F-C67F-438B-950D-39DC91FB1050
053C376E-670F-4B00-BE1D-39F14956D3C5
208D6D5A-E8E3-4043-B31D-3A241C7A7E85
80B980FE-FA25-472A-B6DB-3A24FF9BFF97
7C5DBDB3-127F-447E-B96B-3A49C2810E9B
51DE3D4A-3373-494D-BF34-3B0C21125330
40A2CE3D-5FC5-4D99-9671-3C00E8222E6E
39939781-B679-4370-8D7C-3C3E38C4FF3F
6D720E67-CE00-4F88-A4AA-3C90596CA82C
E6A3D76B-DB4F-4EDB-9C04-3C94B5ED504E
201FC981-3A59-4BEC-A34E-3CDB7CCF1551
2AE2E15C-CA0A-4156-ABBD-3D230D6ED442
6C3C0361-B7C6-4A85-A7D8-3D9E2F1EECEF
87F86033-6BB4-4584-8B6B-3DB866A766B1
EB7A76B7-8213-427B-8D06-3DC15D4E9F43
90833A5B-9004-4DAD-8D7A-3DEDA37AE952
643957D1-6E46-46D1-B7F6-3E701EB6368E
65C92ABA-968B-46BD-83C8-3ED7240DD313
488BFB3E-60C8-4EE9-8292-3FE9C83ED1DF
B09DC346-73DD-430A-8868-400FC7F91E0E
60EFB5B2-6317-4903-91C8-403725566E06
2B484A9F-849A-4F55-B4B6-403C458C2910
C046416E-DE37-47C6-97A1-404CD7623DC0
438D44E0-380E-4CFD-BAF8-404EC8FF5838
BC949A1E-EA57-49B0-AC72-4055F48C6176
7C27B124-4273-42BE-8F13-4086545B571C
3BCE52F1-1FD9-42C7-B4E1-41A5D5FDDEBC
786B235E-22FD-4CE5-90F4-420C6943F144
6D9C8A16-2338-489A-A065-42694898BA83
68FA0D84-E9D6-4A80-8740-4325C7255B83
590B318B-B7B9-451C-9F49-4366DB5B689F
3310A598-6B53-461F-95CF-43B4794B526E
D27D6E6E-6783-4AA2-8D06-43D861E9C610
CE0BDDA0-121E-41E4-A4E9-4446D5575E9E
70A77370-566A-4E67-97C5-446DB4BE04C9
C0AA1493-C1CA-4E42-BDFD-4476E6242CCB
95F412D6-DAE1-478E-88AE-447F88759002
704FD1A1-7029-4CA6-A9AC-44CBDFD2942E
4C0DDFB2-DCAE-418F-A8C6-44E88A43A291
28CE7FDA-68A9-4637-BB20-451E66602B54
1846072E-F097-4336-B6F8-45E564462FBE
9DDFC33F-AA01-49E1-9721-46E68846F996
2EF44B57-2CDE-42F1-8D0F-4752D27E55CB
DC3BF040-27D1-4C16-A992-475EAA4893B4
75491F23-11C3-4C47-85F8-477368E6B326
7E482BBB-2BA8-452E-B80A-47D5C570BEB4
B3F0AC67-9EB2-4753-AF47-480EEF90DE8C
98CC0168-B4FA-4CA4-B8A4-482773A99C88
2E4A8059-14CA-4CEF-A154-48C92D265F71
20783E8C-6FCB-43BE-B17A-492DB8DBDBD5
D9D10178-8640-4C3F-A685-496D57978255
A8D19D72-2516-4E7D-B5D8-49A24D32902A
B3932231-F16C-4344-ADCF-4A38E8CDE920
6DB6CBBA-0975-4613-8B4F-4AD7B2967F76
85CA63F7-FCAD-4B25-A55D-4B023CC725A5
CEBBD438-DEDF-4888-977D-4B58236095A5
E110F245-B09A-4725-AA49-4B5FF0F5181E
95538F63-FE14-4B4B-A114-4BF92877D193
F1428A3F-D0D2-4AB7-A6E8-4C202DA5B97C
627AF9AC-68E3-4E07-AF44-4C7ED7B5F765
EAF26BD2-4E91-42D7-9BC0-4C98488A0B3B
2F1FEC7C-16C8-4BC4-98DD-4CB7398AE383
E08EE6F8-7633-4C20-9D0C-4CCAF97553F7
C15C9F24-8952-4650-99DD-4CEBC4B145ED
7C3D60F3-8F81-461C-BF48-4D25035D1421
417C826C-6444-4797-A3AA-4D2F7BB5122F
DF64142A-C20A-4244-B96C-4D624A3AB89C
04AEE57A-8F02-4791-BB47-4DF8269921B0
CFB4A642-2ED0-4706-8CBE-4DFEF13D2A83
DE00EA7D-470A-45B3-BD0E-4E4EA923A5D4
0650075B-19B2-4729-BF70-4E742C9CAD81
28036D0D-B74B-4AF3-AD3A-4E9D51A61642
2AFEE875-807C-4AD4-9AFC-4EB758F05615
8243D22F-F238-41DC-8AB7-4EC07F2F83F8
9994091E-A340-484C-8D51-4EE486A90DB8
22ADA5BC-B940-45B1-A102-4F052B268DA4
1F132769-06F9-42DD-9B04-4F13B3E37829
7FC27A49-AB30-4468-81CF-4FA7941A2BF9
748B7157-0E74-4071-85E8-4FAA3F9D0F91
93DEC93A-F17F-4A93-BA4C-4FDEE89462B5
C3B3205F-02A3-45BC-A872-502B1D7969EF
52E9851B-F5BB-4093-B4DE-50A16A9CED99
300BEF6C-6F09-4320-8667-50BA8C707BA3
054311AC-AB25-443B-8778-515081282B1E
33E81184-D2F6-433E-AFB7-51C7BFA46BA1
F406C2C9-7BF5-448B-895B-52193E2563D5
864B81E8-DB82-4565-993E-52263DBA2361
46AFF02E-A916-4BEA-B06B-5243DDA46655
67183E6D-BBF1-461A-96C0-52764CF974AC
C7317C2F-6206-4A1A-B281-529487B6E80A
CDFA69DA-21F9-4715-8EAF-529FE14B2E5F
1A37F6B4-08F4-4AA9-84F3-52A402ED5C20
A05AA853-6D44-4B44-A2A4-52CB4FC49F27
1D9E2E46-855D-452E-935D-52E4C31CEEC4
144F81E6-D6C3-4660-8CE3-52F8216D9CFA
C6BD5639-BEDD-447C-89AA-5346E57326F3
B7FA5E4E-06B8-4BAC-9F74-5401016DA11F
3172E64B-C085-4A17-AA7D-540B7EDD4107
F509BB2C-DD02-42A7-AF49-541698E05F1E
99929B4D-D1FB-4B82-B1BC-543A0A36A85B
E2D41A16-7E93-4CBD-AA96-5449C63579A8
488F0126-F516-41AC-8461-548BBD689782
8E7DC63A-4204-48E8-BD68-54B02710D3FA
801B2F92-618C-4882-9C30-558219727187
F1EE54CE-F4C7-4BA0-875B-5582A9FACDAC
C5AEB2EB-5277-47D5-BA53-558C20E0C25C
3BE17D78-9AE9-4E07-B692-55B9E45408AF
B7F024C3-0ABB-4DBC-B185-56334D8DF09B
8DE1EDC2-A00C-4AD4-8E6E-56724B5F78D3
6D0FB047-0060-4316-A671-569A177E1566
7356A57C-4CE1-4CEB-A6BE-56F90A79C676
415AAA86-3408-45BA-87C4-57354DF70346
CB9A303A-A71F-4666-8C4E-57AC9B869D76
90797DA1-0A91-4229-8CBF-586DB58075D1
917264CF-9DA5-47EE-9812-58F933D2244D
AAC862FF-C048-48CE-AA5F-5912E222B75B
314675F2-3FE1-445E-8848-59268CF02B34
B5871803-A5BA-4237-B931-5929545E4DAD
33CF6882-C567-43CB-AA07-597BC47428B2
DE2AC848-EF12-48A7-8894-59A2F58BDCC7
2DC70744-1C66-406E-AE36-59C40F01222D
47302422-84C7-4C42-BAB0-5A26E6DB0B58
9AC16B3B-C0FB-4C45-B238-5A423C5F23AC
9EB997D8-A40A-4897-B54D-5A61BA60954C
4344FB5E-3448-4343-8CF9-5A96E2C0EDBB
52C25772-E74D-4CF7-960A-5B394ADBDF4F
17639278-881E-4FB6-B30E-5B3B21F7B4BC
2BB47BAE-7882-4E97-9587-5B6BA4A353C6
44672A52-9014-41E0-9B15-5B6CC8F203BB
9C6E19DD-14B1-4E5F-89C6-5B6FCF82E4CB
CDE916C0-2B89-4042-8BE9-5B7AC0799F32
DB158782-9A2F-4059-9037-5BA88CF17D62
3F2F5160-D9E3-496F-B187-5BC7A4906369
78757ED8-AFB2-40FD-8107-5C8FC38D8A10
B01BC099-AB10-42F6-B48A-5CD747E6343C
19BC5B2E-6B98-4988-A29A-5CF2D7EF2925
E5739560-8606-4AE9-835D-5D068DF08963
33B5C97C-3D3B-4F5D-811B-5D3C3F02A035
C618D4D7-DD09-4744-91C4-5D4BB70B3A0F
BE026EA3-71EB-4720-BCD2-5D682A8476C3
566DADA4-1849-4C44-9F63-5DDDBB97434F
BAD61873-F728-4B13-B090-5DE2D4262858
F91BAC41-B4A1-466D-A574-5DEAC3C529B5
F2F7DE21-7F43-413D-AEE9-5E0615A58800
24D3C42F-2587-4FF7-AFCA-5E51C23ED6DF
FFFC927F-57D8-48DF-996F-5F457B393333
A8CDC358-3910-4A03-8073-5F507E5F93E5
B9D4BDCB-7734-43E9-B426-5F542F804437
29ECFA40-AEC2-4BF9-A4BA-5F5A788C4B99
04FFE14F-44F2-46F4-98BC-5FB7D226A3F7
87304A33-7AE1-433C-9516-5FE3A853A069
82AFBB92-0A4E-45B1-8F6F-6038D45CF650
743E3D11-BC41-4B10-92AD-6053855F62AE
8E3F00CA-6912-4CA6-BC36-609470CBF133
B0522D59-886C-4118-A4C5-60AAFA6726CC
980C5DAF-3260-4A31-BB56-61211AB3B178
28E891FB-3342-48EC-A96D-6158F4AF31A8
90CC4C44-F792-43C9-8596-619ED9FCFFDD
A0C69D37-A072-4B7D-8883-61A8EBA1F4DF
1888702D-0F77-4E3D-8530-61F77E73459F
2DFB8A36-FAA7-4DD7-A5AC-625AB37740D8
B71FDDF0-91EB-4B4D-B050-625B35BEB6E8
8CF06F00-5349-4A2B-A31F-6299F6F9C07B
00BAC519-E9CE-407C-AC5C-62DB9F22C915
2F757377-8C2A-49CD-A9C1-62F103227A12
A4731F89-47C7-40DE-B849-63E401BBF72D
EB678FE9-A7FD-490B-9E17-643396BB5A74
34ABF40F-34DE-4973-B37B-64B8B9EA7BD2
593EEC39-D792-4DB9-AF45-65540ABE284B
5A34EDE2-7FED-4DA0-9780-65A49CCC5240
AA9BFE8E-D137-4A9C-B390-65AAABCC68B3
FBFDCB54-30B4-44F1-92E4-65BC5DE7682E
5F7D8B37-6673-4418-B976-6668CECE9F65
9D3B4893-8A26-4194-8478-666B6A73A043
1A28DC1C-C33C-44D6-AEE7-66A67D00B0FF
B335FC10-7D7A-4453-86F9-67360F952345
BF3CB6B3-FD6A-4F9B-94EE-67B32E462686
06BFC19B-FA86-4AAF-BD9C-67CC7DE10DF5
A05578A2-2969-490D-ACE4-67FD3C9B9274
2804CC9D-8168-4CB3-BB17-68420B4B1416
1516E50F-7779-435F-9494-689FC31F6DA0
57CF85EE-ACD0-49D5-840E-68ABB69F7326
FC8CA298-6B18-48FC-B1D3-68F975358DEE
94473BD6-6615-45E6-A3D4-690D1391A9E6
040CD70B-E3A9-499D-A818-6926C0D5D6A6
81AF474F-FBE8-4C4C-B8F1-6961C23ACA98
54E7CE3E-9F4F-417E-9299-699213B25460
10C5ED31-9EE9-40CE-AEB7-699886D283EE
45ECA2AF-2392-4A4A-9CDF-6A04BAF74535
211C9BFE-624F-42DD-BF25-6A074260CFFC
DA397D85-8EFC-48ED-87FD-6A505D02AEC7
CF5454BA-B68E-426B-9FE5-6AA4AFDDE814
DD4D4D40-1384-4D25-B577-6AB73D2AFBE7
D9B1A432-A495-459A-BA9D-6AC9B289480D
D781B264-929D-4902-A403-6ADF2AE09C2F
7E11EA14-E071-466E-BF41-6B0883D0F0C6
917EC81D-DEC1-415D-BA9B-6B239B0FDA44
26FC004B-C4AE-4DB5-A85E-6BA43E8EDB79
01A7103B-C5C8-4B2D-A1D0-6BCCBED97CF3
1E6D9432-97A9-4ED8-8050-6BD59E08C7C6
B9951BEE-D6FF-4B4A-9732-6C73558D1126
B178A0F2-4383-4964-AC43-6CA0D1F93364
C5ED633A-A03B-4755-A9D6-6CBEF8BCDDA4
2EB6B164-DF9D-468D-A934-6CD8C3719D5F
B1966171-D848-44CF-A5CD-6CF1E1A9513A
55B5C6EE-DCD5-4066-A3E2-6CFD81DD9E0B
A2F7B1D3-652A-4AEC-BC19-6D79CFC25C00
D0EEE682-92D6-4154-9AAE-6D922748ED60
E529C309-6D45-473A-B682-6DAACD7FDF14
AE1AC0B9-E65A-41C6-A7FA-6E0705B1D9CB
6D39ED90-7AD2-4610-8B5F-6E35976F5B4B
964FB7D5-35C1-485B-98EE-6F21578DC34E
13BB2778-8403-4264-935D-6F3348FB82C4
CE3B864F-B0C7-4AA0-8A6D-6F82C9CC5D2B
2606ACAD-EE96-42CA-AFB9-6F97E2D39C89
3A4F87B0-4C94-45B8-B47E-6FC163F9D6E1
7D3E0EA2-AB43-4EE0-B3C9-6FDF09260B54
A5E9645C-B1AC-4D86-A484-704F9FA71640
E07E9DF8-AF99-4AD0-BCFD-70546C95CFAB
930E2CB7-BF44-4EB7-B24A-70D78C92E85B
9E316297-DBCC-4574-BFE1-70F809276FBB
3BABCF74-3B66-4EE5-8D96-70FDC41CEF73
A5CD54C2-E433-41F2-9FAB-712C724B0B90
E1D4A797-EF42-438C-9B54-7150B2B13936
E1BF2493-5A7B-42EF-8A65-715D0FDDFB98
C1821404-1C32-40EF-B33D-71665C5E0825
E55EC121-B724-4596-A747-71CC858B0BF4
79FED51E-E3E0-4D6C-8F21-71EB91641FB0
5887DA24-90D5-42BE-BC6C-723E64225453
A166A8D3-058F-476C-BB53-72B915789C85
36B4DAE8-6912-48E3-9456-72CDDC6AC885
FF3E8309-9FD5-4716-9F01-72EB54933A37
D9E46E89-EF55-4B4F-9356-72F4623DE982
3E8E9AA9-851E-4D91-AACA-72F72F22527C
406EC2EE-714C-46AF-B072-7337BD588BED
13601C59-A381-4FB7-BC61-734DE9C71452
824A15B1-64B5-43E5-982B-73A1E3100B11
B209E57E-82B4-4826-9B4D-73CA07A18E0A
DF6041C7-C7BB-4334-A3C7-73EB053A3C9E
17CDD405-B9EE-4869-A44D-7458D9E60C57
619985F1-DCCF-4273-845C-7493785CB8AA
FA7BAD7E-8874-4136-B89D-751D229E5CC9
6C35EA4A-66DA-4EAC-B5C0-752369808E61
DAE28F77-13D2-46B1-9EE0-753344DAAEE4
8B0F173E-DD5C-4087-8387-753AB618C05E
1384D305-732C-40DC-A635-759B5279DA7B
DA295FC2-259B-4D02-98A9-75C4AB9D64C1
FF0C41FD-FF3D-42CD-872D-766C3C0C1DF4
24F6D083-466E-4BEA-8D60-766DEB46EA22
BE0AC2AD-D433-49F0-90D5-76ABBC26823A
A3153502-AAAA-4986-93C2-76F868E4AFE4
98D143EB-A669-4D2E-8993-772711809B9B
B26F17A2-073E-4F90-A1CA-77772ACA8B35
013A03EA-A787-4165-9E02-77A3D68BB2C8
32560CC9-F28D-4EE0-9F16-784D1E806986
A602047C-A9D1-4D21-99FB-786F9EAD64A8
2EF48DA3-A06A-4926-A247-78A07BC54D74
277F1B1C-A273-4DFF-B395-78D8578DEA99
2D774F06-C938-4699-A2E0-790A582D174B
DE9F0C0F-F452-4BFF-A214-791EF9B50024
2E777D30-5D4A-4B3E-9D76-79A672F1650C
E6088E6C-A5BD-4766-AE0C-79F055FAFD51
20205F52-CC13-46E7-8AB5-79F0644280F2
79CA74A6-67A0-4F84-84D1-7A9CFAA9B02C
D0E65866-7012-41CF-9F1C-7AA0F79BDD51
8B35A8BF-C65A-4273-8DF4-7AA35F57470D
31DE40A1-1148-42E6-9750-7B46DBCD7CDF
A48B0A2E-4401-43F6-B6C1-7B650B780B95
C560AE8D-3A49-4951-8958-7BAF9E0C5C9C
76E99540-00F5-4792-8F50-7C3C5CA654C3
5943EB1B-F99A-42E8-8E73-7CD21BC23442
2351ACBC-9999-4549-ADD8-7D1CC566186A
B0C534F7-AD2A-45E5-B1BF-7D49B9B54B67
924141F7-75C0-44B2-A002-7D58B6C24370
88A2CB38-8E2A-45C7-804F-7D78E831DCD2
4975B9B5-8930-4E24-9D15-7DA502209E6C
F2422252-B9EB-4167-BA17-7ECD718D440A
89ECB19F-D49E-4E90-9C6D-7F0FA73E306F
24B9F230-980C-43A0-98DC-7FE59DB21D7D
7C981FE0-43BE-468B-BAC2-7FEE7C3FA3E2
9FE93399-84E2-4B1C-9196-80114BA6A587
6C17C777-30B6-4947-AE3A-801726BA602D
9564EC97-9FAD-40B0-A8C5-805446D4F08B
C43B928D-674F-4677-8F48-809B7E4C820D
AC4E1581-A4C4-4502-A655-809D86812741
CE7BA243-24C8-4E62-AF30-80F0AA580DFB
6B9CD4DF-A804-4D82-904D-8165D34B6674
AE27C2AC-BD80-4093-AF82-8172FB8FC018
1B91D9DD-EC70-4B4C-A7E4-81A2F058349B
D62411E7-EEFA-4117-9754-81C8831DC0FE
D258AA7F-8B09-4AE4-A5B2-81E4E9FBE871
B2AEEC66-88D2-4197-BBFA-822D4047F3A1
5FE1A456-96C2-45FF-8CA3-8234162F283F
5A54D841-FF1A-4866-BB35-82566879E597
2300FF8F-B43E-440C-BFBA-82670CD5FCCE
E474D2A6-B224-4F3B-9A9B-82699B7F32C4
BD206617-A505-4821-8DA5-827F462C2E01
500B7E2A-1966-4CE7-8075-829AB930594C
3DF38686-6FFB-42A5-832C-82C869EFF7E5
1F9A02A6-16D9-43C8-9EC6-82CF3B6C442C
338432BE-B211-4D7E-9EE0-82F259580E8F
0AC4D470-D157-4014-82A1-830930CD798B
87C0BD74-8FC8-4906-9C49-83B17B0DCDCF
02702A9D-B320-4D9B-8164-83C62921ABFA
FBEFFF97-6E6D-4077-AE28-843B1723C284
A012395B-33D2-4E9B-9055-846A1AB975A1
5E012B37-C89B-406B-BDAC-8476BD879134
42B24478-C5E6-445B-9DD9-847A6FC29F12
05C5D3AF-D6B4-4E2E-915A-84C6530E0FC3
3553DC1B-75CB-4603-8679-84C98F653E81
16BB727A-942C-47DC-B311-856BD0F6DC52
9537F557-2902-4FD0-8F92-85E2550E7B43
AC41CD60-A74A-4CD3-9472-8789EBBE4E9C
DBA4BE69-FAD7-44B6-9F41-87E55CCF78A9
459CC7C2-96D2-49BB-89D8-8803300C8E46
2586F8CF-6601-406A-B787-881706939E1E
89110C95-5F80-4631-8FA5-885946A89C6A
00C16785-E1A1-44BD-8E11-8882A6A23C72
9B17A186-344F-47D1-9F15-889555A2FC18
A51013E1-74DB-4645-AD5C-88A8454B0DE1
653A1817-CC2F-4187-B0FE-895FDAC6E4D7
136693E7-8B16-4A6B-A9C9-8960FD5647DD
5860B8F5-F369-4974-A673-899324C7775A
EA708A8D-4B4F-407B-A1B7-8998B083DAC0
47F29B84-486D-4DF1-A425-8A608AB1A47B
2E4FF4B7-DE9B-4A43-A341-8AF3F3D7D57E
AB45F1E3-8EB7-48F6-96F4-8B1C60C3BD30
3535BCC6-597E-4A62-8367-8B407CC728E0
7CADA650-DF62-4DED-A881-8B72056AC7B9
BEB77338-C5E0-4804-8C76-8B756356FC9C
7F9519FD-1477-4FA5-A26E-8B9FAEE47B1A
8DF12AFC-B874-45B0-83D7-8C0ECF3D81CA
01D93F0E-62F0-4133-853D-8C9332567BD4
FE5788E3-B98D-422E-94DF-8CAA5D7A6810
79ED12FF-7534-403F-8940-8CB74B68C14F
8650726C-6D38-470D-BC3D-8CCF374289CF
9DC84A38-24E9-405D-9CA0-8CD64B7FE9C8
76102698-0F2C-4564-8D30-8D329ABEFEB6
338C33AE-58BD-4158-ABA6-8D586B62C19C
F9F52F7D-A5FA-40B5-9AEC-8D7DD85402A9
194C1612-969C-44E5-933A-8DA8B5CC861F
FFCA5C0F-C2A7-4347-A0C2-8DE0728435DF
50564E95-5E4C-404E-8B2F-8E190C1D0BF1
88281AF3-B97E-4AF2-9936-8E1C7F92BD66
C5BB605F-5CDC-48DD-867C-8E2247C72B84
BE14828C-F8E6-4713-9BEA-8E281F35D1BD
93177C7B-5A04-4ECE-80FC-8E3094774651
FE9017B1-055F-4F49-A390-8E9CFF1996FC
AC570373-B8BD-43B6-95FF-8F0CBDA50311
C30B1D67-6760-48CC-BFF1-8F204E1BF17D
DB34B717-1332-43A2-943E-8FC05B4850A2
7A56ACD6-451C-47B8-BE09-900C0E3F84AF
FDBC9E2D-4152-40E3-BCEB-90112CB71AAF
E509B999-87E1-407D-997A-901D896E4ABB
C139A5F3-6D95-42D6-BEC3-90296C67EC6D
FDE26158-532B-4622-AA55-904E3D4FFC4E
0B52BA4B-DE1A-4B1E-8D79-9077D5FE2547
102F9821-B8AA-4856-9CA7-90DEB575F81A
6D428703-8759-4A52-BBFB-90F00DF75219
2B42F853-CB98-4934-8D9C-912A2FB9EB70
9777C659-E954-4233-B842-914FC03CA3C0
41532AEA-4EE0-4A56-BCA6-915D034071AB
F371BC13-9ABA-4AA9-BEB4-91D4487282E6
82B58F02-53CA-4E1B-8F60-9260933D608D
DDC04A5C-B523-482E-A8D8-9265BD916EC9
65D24B4F-BC5D-4CF9-A377-92704CC9BD2B
EADB2DC6-F827-4B4F-9AF4-9281291E9704
4A53DFA2-DDBA-4B22-91B6-9294B1911422
98B1308E-9BAE-4DB8-A5CC-932670DC2B34
45BFA128-918F-4421-92B7-932885BCD28C
691E5744-7EDE-4A98-8981-937888480414
96ED5536-C0D0-47D4-9A37-938E6AA1918A
09EA89C4-5BB4-4A9A-AD81-93A1D8946824
3B1185AA-BDC6-463E-97F3-9409B912DB15
939D4576-4FAC-45A9-8FC3-9465AC682762
19CFB125-E92C-489D-B099-94F6417814E2
1730EB02-5924-4927-AB36-9533A9F21D0B
B14B122E-9161-49E5-B898-9572146D0CD0
1E02E30B-D02A-402D-B966-95EAC506F843
5AF90A77-772E-4E40-86BA-95EB650B44B9
69EEC44C-F9A1-4EFA-974C-9603BFBAE43F
2891E225-5574-4984-BCA1-9638344FB5D9
A0880F88-6789-4CFC-AD84-9684CEEC7AAE
A45BC9D8-6036-4145-B9D5-96BC3D62DBFC
1DEBC31C-90D7-4748-B4F9-96EF56D22DEC
69D5D003-5C62-4E7C-8A11-9724EE4C2085
1BC4EBE0-F9CB-4711-B782-9764F9AD8948
E42E0E50-D0A1-40CD-A5AB-9801ECBF46ED
8D9094C7-F229-4F59-BE5D-980C6155C557
8736DDE3-19D4-412C-A8DC-981B295017D4
C3B1796E-A363-4752-A5CF-982FE7815B38
43A288DA-0342-4567-93A8-9838A847BC24
B33A5A21-7E3B-4B10-9EE4-98729F47EFF0
61CC479A-D4BA-4EDB-884A-989DB059C71B
83DD45CC-B8C1-44B9-969E-98B5FE4369C8
5D5A45BA-3C32-4F27-8454-98E4AC510459
56125B88-A1C3-44AE-B672-98FED78A821B
100B584D-4903-41BD-9B19-98FFF96C5351
865F4DC3-C4E3-4CA4-82ED-99113E2EEB67
D3A8CCD9-EDC2-47BC-9B7C-99329A064FB1
4653A1E2-7FB9-4475-B773-99784668BF00
5F8D333F-5D04-4CE0-8B1C-99A32CE8D650
06B8FAB5-CCF0-44BB-859B-9A3797EC587D
FA71546C-5985-45FC-8387-9A59D31F0184
6D444B26-9F53-498A-B28A-9ADA2C44C948
B1B6F5B0-8A40-43EF-819A-9B20D0D53EC2
87A7CDBD-C9FF-45E3-A918-9B578E3850A8
27C19829-4B9D-45A7-B911-9B7B81D245FF
C72725ED-67E6-48E8-9BF4-9B7C08F2DF3C
A86A8368-1FF5-40C2-9653-9B85952FFFBA
3AEBD5B4-4F10-47DE-B5A7-9BA3FE23AA68
ED5CCBE8-7BD4-466A-B4EE-9BEAE2F0E161
E72F7D6C-B359-4196-8B01-9BEE15726B96
BB9C376A-FEE8-4F44-8594-9C21EBB50F85
F79F2F75-828E-482D-A1F9-9C237711C931
3064C940-E635-4DE5-B23A-9C7870E330BD
61D33B0C-2115-402B-947F-9D1CBE3EDFCA
5EACF0BF-426D-4DEE-AF30-9DA43D551E16
52F04BF4-6C5C-463F-9C5C-9E93DC7E1681
BE92DD18-8DCB-45F2-B169-9F28824E1767
3CF6ABD4-14F7-410B-8492-9FABB51B275A
561E6DBC-906C-45B8-9F25-9FFF7EACC1CC
BAC373C1-A15E-4FA2-A058-A0059A7095F1
4072CAE9-A53A-4093-9888-A01619EE6974
6D4B5649-73E9-4963-9555-A0402BD51606
1E8B1174-CB4A-44EC-BAA2-A0EE3E6AD759
2F5C6294-EF94-4488-BF30-A0FD35E1085B
72AF248F-20C7-43D7-8752-A1549EB2BE71
20E04D20-E0AE-4093-8261-A164940AA40D
83C5D68B-AF28-4C13-9716-A1D560923398
D5912531-5E70-4299-B312-A26837A1B206
F1CC2FFB-A352-48C1-8C29-A2B667ABA93A
7ABE3D0B-214A-4697-83C4-A2FFA391B4F3
74F000AF-02D5-4E7F-A351-A3799AB27316
5960281E-293F-4334-A50D-A439E0339429
573E8892-7C37-4463-B568-A440A9AF4C46
37C855D3-C513-4D05-B8D2-A441A721BCD3
02D763AE-8B38-46CD-B316-A46F09E324D1
91FB8ACA-EADB-488E-BA01-A4DEE9A4828C
0E3D05AE-285C-4C24-A9B4-A4E262A811DD
7D23EB2E-9A4E-4B0A-890A-A554A94FA5FB
C39E5614-44EA-42A3-81EC-A55BDD871685
432BFAED-E483-4DC1-BDEE-A56BEA8BADB3
1E5DBCB1-6F58-4609-965F-A592624186F6
4B75831D-7D2F-4D83-B18E-A5D40481BE20
AF3E7D4B-B77B-4902-B075-A5F148843A49
B7F14D06-E55B-434C-B324-A6630DC4D297
C8DDEF42-A101-42DB-B44C-A6896798DA88
967A97FC-59A0-420B-BACC-A6F9E9EB74B3
E3A1B6BF-A485-4B50-9C7A-A72432583B7D
5FBFDC8B-A79D-4EF0-82D5-A730EEF83338
95C02D11-78E2-4236-9765-A766ED433B18
A1FA6029-416F-46D2-92FE-A793B03EF238
94CE8919-FC59-458A-B30E-A8036F3E05F6
F25BB809-9B39-422E-825A-A85CA8B11F65
99099803-7929-4BE3-9AF4-A90533F4D3FB
8847DE6D-2E3A-4B5D-A3C8-A94C6737C51E
76CB8E37-8C0B-4A47-93A0-A9520B19C611
6D294579-3118-4F5D-AE9D-A95A790C873A
CB497BEB-9A9C-468B-A110-A9A3D1BF59AC
7F422916-7340-440B-9D19-AA00CA34001B
E9DC1FCD-1EA7-4104-9251-AA4EA85C4C85
57A26F74-C389-447D-8AE9-AA5BA85F16DA
B140660E-B58C-431A-962F-AB70B234DB71
4371CD51-EFDE-466D-B255-ABCF2FD56FE4
F258B391-E2B3-46E1-AD8D-AC03851E4AE1
7A535DA5-6437-4619-96F1-AC1C5CEEE711
F15F83A2-E394-4ECC-AABF-AC5E44561345
83C78ACB-0693-4497-B9B3-AC697F8F825A
63E3119C-331A-4D25-80D8-AC88C64E2966
86C10436-64A4-4D81-A723-ACA0077A0F32
9464B095-9B5B-40E0-A4C6-ACB9A8999E63
86A70ABA-A843-487E-86A6-AD02E48726EE
ACEBE6C2-5F59-4DDB-903A-AD0F9D7CA9F6
4B1A98A6-7F8C-42EB-B2C1-AD64AB3AD1A9
D7DC3A81-594E-4911-80F4-ADBD01C67CF3
B4BB4FE9-BD50-44C1-8A4C-ADFA17F2A19D
73D07A65-CEB8-4C6F-9985-AE8687CF0047
1E24B6A6-0D40-4B4D-B6EE-AE978890E5B9
5529E371-AECB-49EF-97DC-AF35F3D7203C
5ED08F52-00E6-48D2-93FA-B02E079E6D1C
2FD0182D-D02A-4E5C-943E-B07D7F3A8E57
338AD138-784D-4B00-98AB-B088456D0257
14737CBE-3B1B-43A1-807B-B08C0819A55C
1064B275-B1FC-4A0A-8462-B0F293E7A148
100773BE-9578-4FD4-9DF1-B163FE87A08A
73300503-1A4F-41F9-BD9D-B18B35F3D863
C5A92BFE-8E73-4430-A684-B194C7E6CE1A
173CC246-5122-42F1-8494-B28141A7CA0F
9DEA6731-6F10-4F31-B476-B2A8447980B5
C0C64A46-E1A2-4B79-A694-B2F20686D7AA
82FA937A-3957-4269-A6AD-B31DED43423D
8B1CD351-B38C-406C-9E2C-B35E7A55BFF0
B89F82DC-2538-4F90-88D1-B38F1491BCC0
3182E086-C9EB-4327-B5B1-B4B650543266
190CB388-0732-4D43-B240-B4DC62E1B7B7
9231E062-A5D3-43C0-9DE7-B502C8FDB6B3
DDCCE813-FC46-4F90-BAFF-B557A45C4FC5
61CA1DC4-DAC3-4C9C-A2E1-B67E1C867A5B
2DA8B6EC-D78D-4C8A-B726-B6AB0A31DE15
10ADEE8B-21CA-4B72-A2EF-B6B1743F99D5
FF8E3098-A5B7-4ED6-94DA-B6CED84B989F
89220484-936C-404A-ABDB-B6E49527AA18
9470F01F-75DA-408C-B755-B6FF4D5489D0
3567CBAC-295A-41E4-942D-B719C60FC8FB
4F9DE420-2A34-4C0A-BB3C-B72F9469CC94
1DA39FC9-5EDF-4562-81FA-B789309664D9
FF4266BB-8D4B-42D7-BD1F-B78C1828787C
F865C7ED-917E-49BA-BD1A-B7C01C64A5DE
43D8A8A5-87DE-434A-9E94-B7C7B7C47775
C6A74C2C-156B-48F2-ADA5-B7C889A45160
29B53D58-0359-4B72-9EF3-B7F2A97C2B0A
BA79ADC1-B3DE-46E2-A2A6-B81C349B39D5
7BD2F98D-B960-47A5-ABFD-B82D8596AEA2
6951F401-DA04-4C37-ABB8-B85B75A77133
2CFC3876-FA0B-44F0-AD3F-B89B33350514
81C20608-98CA-4D2A-A8F0-B8B05D5596E8
C67489B7-A5DB-48A6-B73D-B8BD5E96D7C8
823A2497-3CF1-4D00-8457-B99A6D20DE09
6514BAAD-CACB-4CA5-B43F-B9F715F65A55
944CF07F-21B7-4FAA-9F15-BAB8267ADF48
C26DBDFA-96D6-460C-B7BB-BB128C641ABF
72DA119C-E842-458C-B481-BB6DF7052673
208C6558-18E9-4939-A9C7-BBF017BA9419
CB4F1CCB-F024-4C65-8815-BC14BA154AF9
87CF7BC2-B2D8-4EA8-A0BD-BC9775540090
818FBE28-8373-46F5-B384-BCA9C8347D0D
FC52873B-83EA-4915-8E7B-BCB872E07BD3
A5EAB475-FF5F-4F6B-B530-BCE77EDCC0F6
39486C61-773E-4A33-B137-BCF0104A7EA4
BF5E3A6F-0A1B-47C2-AFD7-BD1050A09126
78FED922-AA70-4B17-AE0C-BD3FBA62F063
038C618D-C90D-4BB8-8062-BDCB50E45A96
679B120F-9382-418C-98B5-BDEBD557BD46
9AEDC0A3-B5A3-4658-AA9D-BE06464B532C
80B868BF-CF6E-4F53-8762-BEE690A712EA
0DAF8044-E47F-4C94-BFB2-BF3F19256444
91BAF41E-A6AE-4A81-952C-BF40547D0835
0BCC1491-4FB7-4DA1-BDBA-BF61A2A614B6
67562EA5-3E69-44F0-A19E-BFD883FDFD28
E87916F0-F667-43C7-A1F6-BFFC2A267422
0AD77AC1-F704-4135-8152-C01137BD55EA
4BD614C0-7400-4F93-A6B5-C0514B15DB0E
D27CEC19-6009-47A0-8FBE-C06EEDFFDBA7
B6B68CB8-A1E4-4477-A305-C097B208C6F2
1E468E1F-D545-4D99-8859-C0E939F23346
8DEACD8A-C889-4887-AE75-C0F7B6A35155
B1EC7289-57A7-4F3A-BC90-C140ECB0F84D
92BA32DA-0FF3-4D18-AF42-C1BC8D9DE94C
BEB6E28B-8F6B-4439-AC3C-C24C4FB3C38D
EB64C633-6C2E-49AC-8274-C294A9AD7921
91FF62E9-AD3A-4BDC-B959-C2A752215F62
FB01465C-0F27-4DE2-AFE0-C330EF583E81
16771225-4157-44E6-A03C-C36AFEA9DD62
407C8128-CFAA-414F-951D-C37380346CF9
A96C8B1D-18B5-41F4-A70A-C37F0E43ADC2
948EDBFC-427A-45EB-9E42-C4132DBA37E1
E6B56C19-3D48-480D-9FF6-C44391F6F048
E1BA6D16-2DF5-49D4-86DE-C44DA5578399
89DCEBDE-21EB-499E-8B06-C4C7BF110627
25C0CD39-2F81-453D-8038-C4E442009860
F8BA8601-B100-4B04-9584-C51FF7940D29
837582E0-BC0D-4DC3-9A49-C533DAD00CC1
4BA4616E-388A-4F67-AAD3-C543FA741A6C
0F0C1E76-3E3F-4F98-AA92-C55957E6CC7F
ACD6611D-B519-4A5B-8F6D-C59A6DFAA748
502B4B7C-A352-4873-B5F5-C5E88E0611E2
A15FA651-8000-46AF-9BBB-C5F6B2E7329E
BF10503E-E8FC-42C8-B1CB-C607DD8145D0
C795ACD4-9D90-4EDF-96AB-C7501161274A
761BE2AB-4EE5-4965-8C87-C7C23EBFA187
4D1389DD-7142-4DE9-B97F-C8058E91A823
30A20B0F-2174-4823-9C04-C8DDBAA33B2C
2060C163-A410-426B-B744-C8F70FD6CA2B
5BE179F2-AACC-4F06-8567-C919DF662029
7D25D188-AC73-480F-AF69-C91D304279E8
13B1BA9B-4097-42D5-AEE6-C92002425AEB
98A5E7FB-C884-448D-A1B9-C975C7D6BB2D
86EB2671-04B7-4D49-8EFB-C9A19620D546
CF18546C-1846-4F56-A243-CA74953BA3E4
715D1893-90AB-4DCD-AFFF-CA96BEBD1A9A
64DB8616-E0DC-4A07-9604-CB582675A18E
AB58112E-31F0-41AF-9C85-CB6EAD826AE3
FB09F5B9-EB4E-4CCF-A543-CBCD531CFB32
773FBB5C-EDB8-4D6B-928C-CBE25FC57261
877EC9FF-62C3-4922-A799-CC2C9ED4C971
C798DB83-76B3-44D8-A5C6-CC30E9325994
FDEF6FEB-9F42-48E3-9C8C-CC92C7493038
F91CBAAB-A5BF-4CFE-A94D-CD4742F40D0C
09D3B30C-CFCB-44A6-926F-CDACCCBCE2D3
7B38294A-93DF-47E8-B81C-CDB4F58DEA66
6177E522-7D8E-4B9F-B251-CE18D69F5817
328652B4-0850-4505-8E4F-CE634036B20D
1FBF2681-66B0-4EF7-A9A6-CE76EE9F96EF
879545B0-35B5-42B5-87C7-CF4CC5E14F7D
DF53EEA6-F0F8-4C26-A788-CF659382ECDA
59672456-D27E-48AF-BC75-CFB8243507E4
13A405AA-3EBD-4FE6-B145-D0403401DD5B
735E11B7-FF68-4CD7-84C4-D056CF5F6951
F9A2EDA0-EE58-4CDE-8E7B-D0946C5884AA
0CA31A9C-2FDA-4A0F-89D1-D0C29B1D0F2E
43D265BC-ABD0-4BA7-A957-D130EB758A82
E0658BC6-0D16-4358-9270-D131DC74D761
35180B2B-DFCA-4BC9-801B-D180A1926603
0DDAA673-D2CC-45B3-B603-D18CC287CE95
C1BD778F-BAC7-4A66-BE35-D190A47E32E7
A839044F-5E24-490E-9CE3-D19E1B99DC26
86D4FB4B-F5EA-4DE3-888F-D1AFB5B428C9
26903358-9738-4309-A140-D1B57CAD2208
E5BE025F-32C7-4DB6-BA01-D231DD609481
6EF7EA4D-F756-40FE-81D5-D2690D97191D
423C232E-229B-447D-910D-D2D30275D931
D310A270-7C8A-4B39-B011-D2FCCF741D1F
DA1946B2-DB0A-45BD-BECC-D3F3752B9D61
C55412A8-FAC3-4806-9A20-D468F8AB2EF0
D96C993A-4E2F-42C8-804B-D47BBB3B8114
56143B54-9FDC-4598-B355-D4B375A22D5E
9EC648BD-B64D-4139-9A56-D4CF18EA3228
EF2C100C-97F1-4922-986F-D4FEF3C8522A
5EF2DCB6-E339-4F22-A7A4-D596AAF794ED
F34808C9-5A47-4719-8308-D5AD39045A79
FB8B5EA0-1837-48AF-9425-D5BC06F8CBE8
D95C7BF3-B0B6-4B3C-81FE-D66C04779FD4
9ECB7B10-7F8E-4AA7-B3B4-D6AE5172BEBF
FE2BBCD1-314D-4CE4-AA74-D721B79F8CA5
C419808A-6E36-4E29-86D1-D789429F443E
E9DC2BE3-50AE-4159-875E-D7A3209A31BF
DCDDE22A-1DA7-43EF-8043-D82624B02771
2EB418DC-8AEC-4AF1-B689-D9208BE109E1
8E3ED481-8233-43AA-B63A-D94E45F34F8F
414E814E-82F9-4A00-B3F5-D957FFEB690C
63EAC288-48E0-446B-A7F4-D98599B75012
A65B9C01-4B00-4397-9201-DAB92EFF84AB
54EE748D-67D8-4555-B306-DACFA5711B1F
D01F4D66-B443-476B-93F8-DADE863A6563
EA39D74C-1634-4775-BBBF-DBF575EE1265
77FA9A3C-2555-479E-90B6-DC63512F59E1
766C45FD-6245-4C2C-811D-DD0A7FFB4143
226F2823-A155-4872-88C4-DD295CDC309A
A2C33FCE-35B0-4E83-9E25-DD694C13A20F
2768D897-4B90-4C7A-BBB9-DE03402DA60B
5BC5059E-54C8-4AA2-9AEC-DE295D392C4F
4B2FA29E-275E-4B17-85FE-DEC1B0638227
3F2A378B-E529-4A8B-A45D-DEC8C4AD57BF
202D76CE-13EA-42FA-BB72-DEF206D0199B
7B5AA9A7-D610-4FC6-B2D7-DF029FB89E11
A27E8EF2-B324-4024-BC73-DF57CD6402F1
800FE63B-868D-42D9-AD38-DFD0493FBAAA
443A2D5A-BB36-4DA1-9FF5-E005699F4E51
4996E149-8C65-49DB-B8C0-E0550CC05369
5C182CC1-637E-4C7C-8B2E-E0C3EF7C8931
36B7E36B-74D9-445D-B971-E0D689AE7A19
EF2DE834-0A09-4B1A-AA82-E0E9AB3E63C7
D2BFCA3D-D162-4289-82BF-E0F37A98008D
17EF6F03-ABDC-43EE-8746-E12039070F3B
CDE6F26F-4D4B-47F6-8915-E1D6F32FB936
5E403179-22E9-45F6-B349-E20BAAF07344
41C1BE7E-1E82-44D0-94F8-E21C5B3968E5
E9AA0E87-5537-4B2C-86DC-E23B6E43A645
32A333EB-475C-4E94-92F4-E27137AF6FD0
C82027CA-CFDC-41B8-8AD9-E27836212186
C70C52D2-8C57-4A31-8CD2-E27FD92158FD
F2C17329-3457-4D58-87C1-E2F07778599A
FC2F203D-3B29-4CF0-B2A1-E34E10846760
4135D13F-2CF1-4ECB-9CDD-E389FF748E84
A27DFE61-BF5E-48A2-A3E5-E3CC0BF2B49F
BB6F499F-A036-4A9F-B3F2-E3EC63614AEC
3254F81D-1E03-4F00-A9D0-E3FAB3C40BCC
3C1E7531-CB39-45A4-A58B-E3FE5DAC9EBF
2CC0D1B7-AD79-4DDB-85CB-E468D9A44190
51D211B6-F179-48E5-9689-E4931117DB5C
1BB3D300-2BBD-46F3-BC54-E4DF286B67E6
10ED9DDD-FCE6-4C36-86BD-E5A4F349D45D
41674895-614A-4C3C-BAA0-E5A5216E408B
F6BE5132-A830-4C5E-B0E3-E68334A504C1
2AD839C4-A52E-4B0C-B7CB-E69091BBDDB4
8D18039F-07F3-4ABE-AF67-E6BCB74A23ED
6121FF12-2A9D-4FC8-8A59-E6C1B6F93888
018B4AF8-15EB-4D72-84AE-E80E1491CC84
2DF05CBB-7B75-40DA-B328-E85B1D8C1BBF
67C94552-88C9-4381-8D58-E8A95B8B6207
9C523446-52EC-445D-816E-E8E14AAB2004
8DED903A-3BA5-48CA-BB80-E8E763896F83
87B9D0CB-0C3B-4B74-9219-E90DF817C1F4
39B6B81D-F0A2-4DCB-A5B9-E93BD408300F
D4E37495-F4C6-4EC4-BEB9-E93C2B70B6F8
A396B133-2552-4B8C-9445-E946067A4E51
882FB32B-221B-4DDA-91EE-E96AF6DECCB6
23963FD8-6809-4CE5-AE0A-E9DB6F42403E
960DFB33-8A05-457E-BB02-EA23D0E8CF8B
84CDF067-1B18-42BB-996B-EA617E29FAF1
CB07BBA9-89DC-4C5B-A390-EB5165339359
2598863F-23B9-445A-95D3-EB525A90FE3A
61A8949E-86C0-4A5B-AA09-EB85BB4A446A
E9DA7CB2-94D2-4F87-BA28-EB968759042B
320AD4B6-2BAB-4973-A166-EBBECC5732D1
6C7A1C97-BEA2-4943-AB10-EBC61F04A891
0AB9D7D9-21C5-494E-8B38-EBCBE7517BBC
A7D38456-B73C-42DA-A33F-EC061B14ABE4
D37B95E9-9F6D-4C11-8F1F-EC1D30D1117D
DFC1F3A5-9D05-4B7F-BEAD-EC659B0F2A3B
33DDE75D-6CAB-4C3A-B556-EC6848D89E4F
22154DF1-1054-4757-A3F3-ED0333DF1D66
FD008CE9-4874-415C-9C07-ED103510D842
C732562E-9381-47D5-BAFE-ED91F77D6BA9
0B3F485F-944D-47C9-8299-EDB8FD1176DD
921513E3-B68C-4233-BB23-EDD13270E7F7
6F56E24F-40C3-4153-9F1A-EE00C65947E5
24D86E07-B13C-4B62-9E50-EE2448D6FBE1
8FD7A55C-633D-4D09-9859-EE9869B33CCB
1CDEA19A-F0FF-44D7-95DD-EEE8469A1A4E
F05034AF-4726-414F-A8DF-EEF31002B3C4
D5771651-AF4C-49CB-BE99-EEF4D47E636C
2CCC8910-84E5-49BE-AA55-EF003F2CAFD0
FC100F6F-F151-466F-9A90-F00906975C93
0ABC5257-CF27-40B6-A963-F03DD90B8AC1
FB775A78-D100-4423-81CE-F0D39F660B94
0AB9D8F8-D0A5-4800-8380-F136972CFCD9
AA7922AB-F4D9-451E-A691-F142F0770C42
0B0446B8-62E5-45F0-9E13-F16E2B77FD77
86FCCE9C-F0F9-4A09-9C01-F194865A795E
31A4E742-5111-44DB-969F-F198D2CC6C83
FCB9BEA4-6F32-47F4-8EDD-F1F7C6CE3DB5
868628DB-2041-4A26-9D22-F2183AB8025A
E31C65C6-C32E-449B-AC8B-F2854ABBDEE6
EB9F3B13-15B4-4EE0-8627-F2EB9E9209ED
9A4C993B-B30C-42FB-97CD-F35DE35DF693
BEA39C39-399F-4F16-8D11-F3A4E2F1A4A7
B5A58BE1-1E0C-4E16-BFAE-F3D72A02C85F
0B969266-93CB-4242-8CFC-F4B57F7A3A49
55B5FDA0-916B-4933-ADD3-F4D81588CA53
B1509485-51B6-4498-9059-F534DBB2A08E
994350FB-EBE4-489F-B30D-F5A88CA6ED3D
46304204-831B-4EC6-8740-F5AE6F208C69
EEE2D54E-FC8F-48C5-B458-F5C8C899A770
F7514A2C-ABFD-4FF0-A39E-F7A676093176
D532EC5E-2F22-45A5-A7D0-F7B81324260F
524E4571-5585-4B84-A288-F7C2C04B4C86
DBA28C80-A2C3-425E-8CA4-F80490282886
46A3F3A7-597B-44A0-996D-F83A7C50D6E9
9851E65F-F6E3-4351-87D3-F8557A79DE5A
98828E77-E5E1-4211-8C42-F88D5EB8F17B
4B2013B4-9C6E-40F5-AF13-F8C8EE4C1909
D5F3FC8C-5FBE-4D27-861C-F8E2C045C1A6
B4A79BB1-0541-46C3-86A6-F92DFF1BC76A
AE192070-6B1F-4227-8E72-F94C08C22BD6
9A291CB2-3773-44EA-88EE-F96D186BED35
884F79BE-5EF8-4C1D-A361-F9A6A162933E
DE475618-1841-4EEF-9137-F9AAF2D06D37
3CE20E35-7BAE-49E7-A2E0-F9F7FFB20C1D
42BA4156-647C-44B4-B9F1-FA8D4C7B683B
3E2C23AE-7EC3-4E9C-B706-FA971C4940AA
C50D0C4C-C4E5-46AB-9589-FA9B6EA3F182
26FFD960-26A4-4FA5-BAEF-FAA6B5A36032
217EED19-FFA7-4DE5-AB9F-FAD97C946390
533F5100-93FD-490F-A7F1-FB5C0955290A
7673278F-A358-4F80-8C26-FBA726465CE4
9AC0EBFC-D76D-4D09-97C2-FBB09A5B0EFD
680C6F85-7D05-4FA1-B47E-FBCDB728BFAA
BC08AE75-CAB6-41F0-B711-FC2EFCAC4544
8A41572B-633A-414C-B960-FC2FD4BA2988
F9F350B2-69A5-4723-BA5E-FC389D6D4B88
CA5367DA-B6D3-47B3-878E-FC3BB531B68A
4BF1204B-DFBC-4264-BB25-FCA3621201F1
01C9A819-3629-4CCD-A4EB-FCBF2FB7F670
F30DDB10-FAA2-4762-8980-FCD4E6EAA578
209EEA10-4331-4375-AD85-FCDAEE68DAD6
09DB3F86-6093-40B6-A84C-FD159C5E2AB4
EDF876B9-8588-4131-BAE7-FD2A2FE2257D
8CB6D9D0-DA58-416B-BDE5-FD564948CD69
04FA8B37-60D2-4764-88BB-FDE997F4A01D
74A9B4C4-2E4B-4438-82FD-FDEAC748428D
2C2C04B1-E09E-46AA-A854-FE1FD651C7C7
19220FAB-D969-4481-8CA9-FE5064C50E70
5D7E7DD4-422F-43AB-A9C0-FE7F120BF18E
581F97F4-96C0-45BB-A2DC-FF013847C617
C3CFE929-4FD1-4480-B4D2-FF08E5B8E685
F9FD535E-A128-4C50-B0A2-FF3133DECF38
BEC3FEF8-3832-4B37-831C-FF587AA0CE83
AACC19BE-38F3-484F-A577-FF804FF342D0
621145AA-7A06-4916-97A1-FFB544372FB0
95811046-D263-4655-B7C3-FFBAF9371C05